waveform.vcd
$date
	Sun Nov 26 01:09:19 2023
$end
$version
	Icarus Verilog
$end
$timescale
	1s
$end
$scope module TestBench $end
$var parameter 32 ! num_cycles $end
$var reg 1 " Clk $end
$var reg 1 # Reset $end
$var integer 32 $ counter [31:0] $end
$var integer 32 % flush [31:0] $end
$var integer 32 & i [31:0] $end
$var integer 32 ' outfile [31:0] $end
$var integer 32 ( stall [31:0] $end
$scope module CPU $end
$var wire 1 ) ID_FlushIF $end
$var wire 1 " clk_i $end
$var wire 1 # rst_i $end
$var wire 1 * stall $end
$var wire 32 + pc_o [31:0] $end
$var wire 32 , instr_o [31:0] $end
$var wire 32 - Sign_Extend_extended_im [31:0] $end
$var wire 32 . Register_RS2data_o [31:0] $end
$var wire 32 / Register_RS1data_o [31:0] $end
$var wire 1 0 PCWrite $end
$var wire 1 1 NoOp $end
$var wire 32 2 MUX_WB_o [31:0] $end
$var wire 32 3 MUX_PC_o [31:0] $end
$var wire 32 4 MUX_ALUSrc_o [31:0] $end
$var wire 2 5 MUX3_RD2_signal [1:0] $end
$var wire 32 6 MUX3_RD2_data_o [31:0] $end
$var wire 2 7 MUX3_RD1_signal [1:0] $end
$var wire 32 8 MUX3_RD1_data_o [31:0] $end
$var wire 5 9 MEMWB_RegisterRd_o [4:0] $end
$var wire 1 : MEMWB_RegWrite_o $end
$var wire 32 ; MEMWB_ReadData_o [31:0] $end
$var wire 1 < MEMWB_MemToReg_o $end
$var wire 32 = MEMWB_ALUres_o [31:0] $end
$var wire 32 > Instruction_Memory_instr_o [31:0] $end
$var wire 32 ? IFID_PC_o [31:0] $end
$var wire 7 @ IDEX_func7_o [6:0] $end
$var wire 3 A IDEX_func3_o [2:0] $end
$var wire 32 B IDEX_extended_im_o [31:0] $end
$var wire 1 C IDEX_branch $end
$var wire 5 D IDEX_RegisterRd_o [4:0] $end
$var wire 5 E IDEX_RegisterR2_o [4:0] $end
$var wire 5 F IDEX_RegisterR1_o [4:0] $end
$var wire 1 G IDEX_RegWrite_o $end
$var wire 1 H IDEX_RegWrite $end
$var wire 32 I IDEX_RS2data_o [31:0] $end
$var wire 32 J IDEX_RS1data_o [31:0] $end
$var wire 1 K IDEX_MemWrite_o $end
$var wire 1 L IDEX_MemWrite $end
$var wire 1 M IDEX_MemToReg_o $end
$var wire 1 N IDEX_MemToReg $end
$var wire 1 O IDEX_MemRead_o $end
$var wire 1 P IDEX_MemRead $end
$var wire 1 Q IDEX_ALUSrc_o $end
$var wire 1 R IDEX_ALUSrc $end
$var wire 2 S IDEX_ALUOp_o [1:0] $end
$var wire 2 T IDEX_ALUOp [1:0] $end
$var wire 5 U EXMEM_RegisterRd_o [4:0] $end
$var wire 1 V EXMEM_RegWrite_o $end
$var wire 32 W EXMEM_RS2data_o [31:0] $end
$var wire 1 X EXMEM_MemWrite_o $end
$var wire 1 Y EXMEM_MemToReg_o $end
$var wire 1 Z EXMEM_MemRead_o $end
$var wire 32 [ EXMEM_ALUres_o [31:0] $end
$var wire 32 \ Data_Memory_data_o [31:0] $end
$var wire 32 ] Branch_PC_o [31:0] $end
$var wire 1 ^ And_rd1_rd2_branch_data_o $end
$var wire 32 _ Add_PC_pc_o [31:0] $end
$var wire 32 ` ALU_ALUres [31:0] $end
$var wire 3 a ALU_ALUctrl [2:0] $end
$var reg 1 b And_rd1_rd2_branch_data_o_reg $end
$var reg 1 c MEMWB_RegWrite_o_reg $end
$var reg 1 d NoOp_reg $end
$var reg 1 e PCWrite_reg $end
$var reg 1 f stall_reg $end
$scope module ALU $end
$var wire 32 g readData2 [31:0] $end
$var wire 32 h readData1 [31:0] $end
$var wire 3 i ALUctrl [2:0] $end
$var reg 32 j ALUres [31:0] $end
$upscope $end
$scope module ALU_Control $end
$var wire 7 k func7 [6:0] $end
$var wire 3 l func3 [2:0] $end
$var wire 2 m ALUOp [1:0] $end
$var reg 3 n ALUctrl [2:0] $end
$upscope $end
$scope module Add_PC $end
$var wire 32 o pc_i [31:0] $end
$var reg 32 p pc_o [31:0] $end
$upscope $end
$scope module And_rd1_rd2_branch $end
$var wire 1 q data2_i $end
$var wire 1 ^ data_o $end
$var wire 1 C data1_i $end
$upscope $end
$scope module Branch_PC $end
$var wire 32 r src1 [31:0] $end
$var wire 32 s src2 [31:0] $end
$var wire 32 t AdderRes [31:0] $end
$upscope $end
$scope module Control $end
$var wire 1 d NoOp $end
$var wire 7 u ctrlCode [6:0] $end
$var reg 2 v ALUOp [1:0] $end
$var reg 1 R ALUSrc $end
$var reg 1 C Branch_o $end
$var reg 1 P MemRead $end
$var reg 1 N MemToReg $end
$var reg 1 L MemWrite $end
$var reg 1 H RegWrite $end
$upscope $end
$scope module Data_Memory $end
$var wire 1 " clk_i $end
$var wire 32 w data_o [31:0] $end
$var wire 32 x data_i [31:0] $end
$var wire 32 y addr_i [31:0] $end
$var wire 1 X MemWrite_i $end
$var wire 1 Z MemRead_i $end
$upscope $end
$scope module EXMEM_register $end
$var wire 32 z ALUres_i [31:0] $end
$var wire 1 " clk_i $end
$var wire 1 # rst_i $end
$var wire 5 { RegisterRd_i [4:0] $end
$var wire 1 G RegWrite_i $end
$var wire 32 | RS2data_i [31:0] $end
$var wire 1 K MemWrite_i $end
$var wire 1 M MemToReg_i $end
$var wire 1 O MemRead_i $end
$var reg 32 } ALUres [31:0] $end
$var reg 32 ~ ALUres_o [31:0] $end
$var reg 1 !" MemRead $end
$var reg 1 Z MemRead_o $end
$var reg 1 "" MemToReg $end
$var reg 1 Y MemToReg_o $end
$var reg 1 #" MemWrite $end
$var reg 1 X MemWrite_o $end
$var reg 32 $" RS2data [31:0] $end
$var reg 32 %" RS2data_o [31:0] $end
$var reg 1 &" RegWrite $end
$var reg 1 V RegWrite_o $end
$var reg 5 '" RegisterRd [4:0] $end
$var reg 5 (" RegisterRd_o [4:0] $end
$upscope $end
$scope module ForwardingUnit $end
$var wire 5 )" EXMEM_Rd [4:0] $end
$var wire 1 V EXMEM_RegWrite $end
$var wire 1 : MEMWB_RegWrite $end
$var wire 5 *" MEMWB_Rd [4:0] $end
$var wire 5 +" IDEX_Rs2 [4:0] $end
$var wire 5 ," IDEX_Rs1 [4:0] $end
$var reg 2 -" ForwardA [1:0] $end
$var reg 2 ." ForwardB [1:0] $end
$upscope $end
$scope module Hazard_Detection $end
$var wire 5 /" IFID_Rs1 [4:0] $end
$var wire 5 0" IFID_Rs2 [4:0] $end
$var wire 5 1" IDEX_Rd [4:0] $end
$var wire 1 O IDEX_MemRead $end
$var reg 1 1 NoOp $end
$var reg 1 0 PCWrite $end
$var reg 1 * Stall_o $end
$upscope $end
$scope module IDEX_register $end
$var wire 2 2" ALUOp_i [1:0] $end
$var wire 1 R ALUSrc_i $end
$var wire 1 P MemRead_i $end
$var wire 1 N MemToReg_i $end
$var wire 1 L MemWrite_i $end
$var wire 1 H RegWrite_i $end
$var wire 5 3" RegisterR1_i [4:0] $end
$var wire 5 4" RegisterR2_i [4:0] $end
$var wire 5 5" RegisterRd_i [4:0] $end
$var wire 1 " clk_i $end
$var wire 3 6" func3_i [2:0] $end
$var wire 7 7" func7_i [6:0] $end
$var wire 1 # rst_i $end
$var wire 32 8" extended_im_i [31:0] $end
$var wire 32 9" RS2data_i [31:0] $end
$var wire 32 :" RS1data_i [31:0] $end
$var reg 2 ;" ALUOp [1:0] $end
$var reg 2 <" ALUOp_o [1:0] $end
$var reg 1 =" ALUSrc $end
$var reg 1 Q ALUSrc_o $end
$var reg 1 >" MemRead $end
$var reg 1 O MemRead_o $end
$var reg 1 ?" MemToReg $end
$var reg 1 M MemToReg_o $end
$var reg 1 @" MemWrite $end
$var reg 1 K MemWrite_o $end
$var reg 32 A" RS1data [31:0] $end
$var reg 32 B" RS1data_o [31:0] $end
$var reg 32 C" RS2data [31:0] $end
$var reg 32 D" RS2data_o [31:0] $end
$var reg 1 E" RegWrite $end
$var reg 1 G RegWrite_o $end
$var reg 5 F" RegisterR1 [4:0] $end
$var reg 5 G" RegisterR1_o [4:0] $end
$var reg 5 H" RegisterR2 [4:0] $end
$var reg 5 I" RegisterR2_o [4:0] $end
$var reg 5 J" RegisterRd [4:0] $end
$var reg 5 K" RegisterRd_o [4:0] $end
$var reg 32 L" extended_im [31:0] $end
$var reg 32 M" extended_im_o [31:0] $end
$var reg 3 N" func3 [2:0] $end
$var reg 3 O" func3_o [2:0] $end
$var reg 7 P" func7 [6:0] $end
$var reg 7 Q" func7_o [6:0] $end
$upscope $end
$scope module IFID_register $end
$var wire 1 b IFID_flush_i $end
$var wire 1 f IFID_stall_i $end
$var wire 1 " clk_i $end
$var wire 1 # rst_i $end
$var wire 32 R" instruction_i [31:0] $end
$var wire 32 S" PC_i [31:0] $end
$var reg 32 T" PC [31:0] $end
$var reg 32 U" PC_o [31:0] $end
$var reg 32 V" instruction [31:0] $end
$var reg 32 W" instruction_o [31:0] $end
$upscope $end
$scope module Instruction_Memory $end
$var wire 32 X" instr_o [31:0] $end
$var wire 32 Y" addr_i [31:0] $end
$upscope $end
$scope module MEMWB_register $end
$var wire 32 Z" ALUres_i [31:0] $end
$var wire 1 Y MemToReg_i $end
$var wire 32 [" ReadData_i [31:0] $end
$var wire 1 V RegWrite_i $end
$var wire 5 \" RegisterRd_i [4:0] $end
$var wire 1 " clk_i $end
$var wire 1 # rst_i $end
$var reg 32 ]" ALUres [31:0] $end
$var reg 32 ^" ALUres_o [31:0] $end
$var reg 1 _" MemToReg $end
$var reg 1 < MemToReg_o $end
$var reg 32 `" ReadData [31:0] $end
$var reg 32 a" ReadData_o [31:0] $end
$var reg 1 b" RegWrite $end
$var reg 1 : RegWrite_o $end
$var reg 5 c" RegisterRd [4:0] $end
$var reg 5 d" RegisterRd_o [4:0] $end
$upscope $end
$scope module MUX3_RD1 $end
$var wire 32 e" data1_i [31:0] $end
$var wire 32 f" data3_i [31:0] $end
$var wire 2 g" signal [1:0] $end
$var wire 32 h" data2_i [31:0] $end
$var reg 32 i" data_o [31:0] $end
$upscope $end
$scope module MUX3_RD2 $end
$var wire 32 j" data1_i [31:0] $end
$var wire 32 k" data3_i [31:0] $end
$var wire 2 l" signal [1:0] $end
$var wire 32 m" data2_i [31:0] $end
$var reg 32 n" data_o [31:0] $end
$upscope $end
$scope module MUX_ALUSrc $end
$var wire 1 Q ALUSrc $end
$var wire 32 o" im [31:0] $end
$var wire 32 p" readData1 [31:0] $end
$var wire 32 q" readData2 [31:0] $end
$upscope $end
$scope module MUX_PC $end
$var wire 1 b ALUSrc $end
$var wire 32 r" im [31:0] $end
$var wire 32 s" readData1 [31:0] $end
$var wire 32 t" readData2 [31:0] $end
$upscope $end
$scope module MUX_WB $end
$var wire 1 < ALUSrc $end
$var wire 32 u" im [31:0] $end
$var wire 32 v" readData1 [31:0] $end
$var wire 32 w" readData2 [31:0] $end
$upscope $end
$scope module PC $end
$var wire 1 e PCWrite_i $end
$var wire 1 " clk_i $end
$var wire 32 x" pc_i [31:0] $end
$var wire 1 # rst_i $end
$var reg 32 y" pc_o [31:0] $end
$upscope $end
$scope module Registers $end
$var wire 5 z" RDaddr_i [4:0] $end
$var wire 32 {" RDdata_i [31:0] $end
$var wire 5 |" RS1addr_i [4:0] $end
$var wire 5 }" RS2addr_i [4:0] $end
$var wire 1 c RegWrite_i $end
$var wire 1 " clk_i $end
$var wire 1 # rst_i $end
$var wire 32 ~" RS2data_o [31:0] $end
$var wire 32 !# RS1data_o [31:0] $end
$var integer 32 "# i [31:0] $end
$upscope $end
$scope module Sign_Extend $end
$var wire 32 ## im [31:0] $end
$var reg 32 $# extended_im [31:0] $end
$upscope $end
$upscope $end
$upscope $end
$enddefinitions $end
$comment Show the parameter values. $end
$dumpall
b1000000 !
$end
#0
$dumpvars
bx $#
bx ##
bx "#
bx !#
bx ~"
bx }"
bx |"
bx {"
bx z"
bx y"
bx x"
bx w"
bx v"
bx u"
bx t"
bx s"
bx r"
bx q"
bx p"
bx o"
bx n"
bx m"
bx l"
bx k"
bx j"
bx i"
bx h"
bx g"
bx f"
bx e"
bx d"
bx c"
xb"
bx a"
bx `"
x_"
bx ^"
bx ]"
bx \"
bx ["
bx Z"
bx Y"
bx X"
bx W"
bx V"
bx U"
bx T"
bx S"
bx R"
bx Q"
bx P"
bx O"
bx N"
bx M"
bx L"
bx K"
bx J"
bx I"
bx H"
bx G"
bx F"
xE"
bx D"
bx C"
bx B"
bx A"
x@"
x?"
x>"
x="
bx <"
bx ;"
bx :"
bx 9"
bx 8"
bx 7"
bx 6"
bx 5"
bx 4"
bx 3"
b0 2"
bx 1"
bx 0"
bx /"
bx ."
bx -"
bx ,"
bx +"
bx *"
bx )"
bx ("
bx '"
x&"
bx %"
bx $"
x#"
x""
x!"
bx ~
bx }
bx |
bx {
bx z
bx y
bx x
bx w
b0 v
bx u
bx t
bx s
bx0 r
xq
bx p
bx o
bx n
bx m
bx l
bx k
bx j
bx i
bx h
bx g
0f
1e
0d
0c
0b
bx a
bx `
bx _
0^
bx ]
bx \
bx [
xZ
xY
xX
bx W
xV
bx U
b0 T
bx S
0R
xQ
0P
xO
0N
xM
0L
xK
bx J
bx I
0H
xG
bx F
bx E
bx D
0C
bx B
bx A
bx @
bx ?
bx >
bx =
x<
bx ;
x:
bx 9
bx 8
bx 7
bx 6
bx 5
bx 4
bx 3
bx 2
x1
x0
bx /
bx .
bx -
bx ,
bx +
x*
0)
b0 (
b11 '
b100000 &
b0 %
b0 $
1#
0"
$end
#6
b100 3
b100 t"
b100 x"
b1100010000000100000110011 >
b1100010000000100000110011 R"
b1100010000000100000110011 X"
b100 _
b100 p
b100 s"
b0 +
b0 o
b0 S"
b0 Y"
b0 y"
b100000 "#
0#
#12
1#
#25
b1000 3
b1000 t"
b1000 x"
b1100110000000100000110011 >
b1100110000000100000110011 R"
b1100110000000100000110011 X"
b1000 _
b1000 p
b1000 s"
0="
b0 ;"
0@"
0>"
0?"
0E"
b1100010000000100000110011 V"
b0 T"
b100 +
b100 o
b100 S"
b100 Y"
b100 y"
b1 $
1"
#50
0q
b11111111111111111111111111101000 .
b11111111111111111111111111101000 9"
b11111111111111111111111111101000 ~"
b0 /
b0 :"
b0 !#
1H
b10 T
b10 v
b10 2"
b10000 5"
b11000 4"
b10000 3"
b0 6"
b0 7"
b11000 0"
b10000 /"
b11000 }"
b10000 |"
b110011 u
b111 a
b111 i
b111 n
01
10
0*
b1100010000000100000110011 ,
b1100010000000100000110011 W"
b1100010000000100000110011 ##
b0 ?
b0 s
b0 U"
0Q
b0 S
b0 m
b0 <"
0K
0O
0M
0G
0"
#75
b1100 3
b1100 t"
b1100 x"
b1101010000000100000110011 >
b1101010000000100000110011 R"
b1101010000000100000110011 X"
b1100 _
b1100 p
b1100 s"
0#"
0!"
0""
0&"
b10000 J"
b11000 H"
b10000 F"
b0 N"
b0 P"
b11111111111111111111111111101000 C"
b0 A"
b10 ;"
1E"
b1100110000000100000110011 V"
b100 T"
b1000 +
b1000 o
b1000 S"
b1000 Y"
b1000 y"
b10 $
1"
#100
b11111111111111111111111111101000 `
b11111111111111111111111111101000 j
b11111111111111111111111111101000 z
b11111111111111111111111111100111 .
b11111111111111111111111111100111 9"
b11111111111111111111111111100111 ~"
b11111111111111111111111111101000 4
b11111111111111111111111111101000 g
b11111111111111111111111111101000 q"
b11001 4"
b11001 0"
b11001 }"
b11111111111111111111111111101000 6
b11111111111111111111111111101000 |
b11111111111111111111111111101000 n"
b11111111111111111111111111101000 p"
b0 8
b0 h
b0 i"
b0 a
b0 i
b0 n
b0 \
b0 w
b0 ["
b0 5
b0 ."
b0 l"
b0 7
b0 -"
b0 g"
b1100110000000100000110011 ,
b1100110000000100000110011 W"
b1100110000000100000110011 ##
b100 ?
b100 s
b100 U"
b10000 D
b10000 {
b10000 1"
b10000 K"
b11000 E
b11000 +"
b11000 I"
b10000 F
b10000 ,"
b10000 G"
b0 A
b0 l
b0 O"
b0 @
b0 k
b0 Q"
b11111111111111111111111111101000 I
b11111111111111111111111111101000 D"
b11111111111111111111111111101000 j"
b0 J
b0 B"
b0 e"
b10 S
b10 m
b10 <"
1G
0X
0Z
0Y
0V
0"
#125
b10000 3
b10000 t"
b10000 x"
b1110010000000100000110011 >
b1110010000000100000110011 R"
b1110010000000100000110011 X"
b10000 _
b10000 p
b10000 s"
b0 `"
0_"
0b"
b10000 '"
b11111111111111111111111111101000 $"
b11111111111111111111111111101000 }
1&"
b11001 H"
b11111111111111111111111111100111 C"
b1101010000000100000110011 V"
b1000 T"
b1100 +
b1100 o
b1100 S"
b1100 Y"
b1100 y"
b11 $
1"
#150
b11111111111111111111111111100110 .
b11111111111111111111111111100110 9"
b11111111111111111111111111100110 ~"
b11111111111111111111111111001111 `
b11111111111111111111111111001111 j
b11111111111111111111111111001111 z
b11111111111111111111111111100111 4
b11111111111111111111111111100111 g
b11111111111111111111111111100111 q"
b11010 4"
b11010 0"
b11010 }"
b11111111111111111111111111101000 8
b11111111111111111111111111101000 h
b11111111111111111111111111101000 i"
b11111111111111111111111111100111 6
b11111111111111111111111111100111 |
b11111111111111111111111111100111 n"
b11111111111111111111111111100111 p"
b10 7
b10 -"
b10 g"
b1101010000000100000110011 ,
b1101010000000100000110011 W"
b1101010000000100000110011 ##
b1000 ?
b1000 s
b1000 U"
b11001 E
b11001 +"
b11001 I"
b11111111111111111111111111100111 I
b11111111111111111111111111100111 D"
b11111111111111111111111111100111 j"
b10000 U
b10000 ("
b10000 )"
b10000 \"
b11111111111111111111111111101000 W
b11111111111111111111111111101000 x
b11111111111111111111111111101000 %"
b11111111111111111111111111101000 [
b11111111111111111111111111101000 y
b11111111111111111111111111101000 ~
b11111111111111111111111111101000 Z"
b11111111111111111111111111101000 f"
b11111111111111111111111111101000 k"
1V
b0 ;
b0 a"
b0 u"
0<
0:
0"
#175
b10100 3
b10100 t"
b10100 x"
b1000000000010110000100011 >
b1000000000010110000100011 R"
b1000000000010110000100011 X"
b10100 _
b10100 p
b10100 s"
b10000 c"
b11111111111111111111111111101000 ]"
1b"
b11111111111111111111111111100111 $"
b11111111111111111111111111001111 }
b11010 H"
b11111111111111111111111111100110 C"
b1110010000000100000110011 V"
b1100 T"
b10000 +
b10000 o
b10000 S"
b10000 Y"
b10000 y"
b100 $
1"
#200
b11111111111111111111111111101000 /
b11111111111111111111111111101000 :"
b11111111111111111111111111101000 !#
1c
b111000 .
b111000 9"
b111000 ~"
b11111111111111111111111110110101 `
b11111111111111111111111110110101 j
b11111111111111111111111110110101 z
b11111111111111111111111111100110 4
b11111111111111111111111111100110 g
b11111111111111111111111111100110 q"
b11100 4"
b11100 0"
b11100 }"
b11111111111111111111111111001111 8
b11111111111111111111111111001111 h
b11111111111111111111111111001111 i"
b11111111111111111111111111100110 6
b11111111111111111111111111100110 |
b11111111111111111111111111100110 n"
b11111111111111111111111111100110 p"
b11111111111111111111111111101000 2
b11111111111111111111111111101000 h"
b11111111111111111111111111101000 m"
b11111111111111111111111111101000 w"
b11111111111111111111111111101000 {"
b10 7
b10 -"
b10 g"
b1110010000000100000110011 ,
b1110010000000100000110011 W"
b1110010000000100000110011 ##
b1100 ?
b1100 s
b1100 U"
b11010 E
b11010 +"
b11010 I"
b11111111111111111111111111100110 I
b11111111111111111111111111100110 D"
b11111111111111111111111111100110 j"
b11111111111111111111111111100111 W
b11111111111111111111111111100111 x
b11111111111111111111111111100111 %"
b11111111111111111111111111001111 [
b11111111111111111111111111001111 y
b11111111111111111111111111001111 ~
b11111111111111111111111111001111 Z"
b11111111111111111111111111001111 f"
b11111111111111111111111111001111 k"
b10000 9
b10000 *"
b10000 d"
b10000 z"
b11111111111111111111111111101000 =
b11111111111111111111111111101000 ^"
b11111111111111111111111111101000 v"
1:
0"
#225
b11000 3
b11000 t"
b11000 x"
b1000001111011111000000010110011 >
b1000001111011111000000010110011 R"
b1000001111011111000000010110011 X"
b11000 _
b11000 p
b11000 s"
b11111111111111111111111111001111 ]"
b11111111111111111111111111100110 $"
b11111111111111111111111110110101 }
b11100 H"
b111000 C"
b11111111111111111111111111101000 A"
b1000000000010110000100011 V"
b10000 T"
b10100 +
b10100 o
b10100 S"
b10100 Y"
b10100 y"
b101 $
1"
#250
b1000000 ]
b1000000 t
b1000000 r"
b110000 r
b11111111111111111111111111001111 .
b11111111111111111111111111001111 9"
b11111111111111111111111111001111 ~"
1L
0H
b0 T
b0 v
b0 2"
1R
b11111111111111111111111111101101 `
b11111111111111111111111111101101 j
b11111111111111111111111111101101 z
b111000 4
b111000 g
b111000 q"
b0 /
b0 :"
b0 !#
b11000 -
b11000 8"
b11000 $#
b11000 5"
b10000 4"
b0 3"
b10 6"
b10000 0"
b0 /"
b10000 }"
b0 |"
b100011 u
b10 7
b10 -"
b10 g"
b11111111111111111111111110110101 8
b11111111111111111111111110110101 h
b11111111111111111111111110110101 i"
b111000 6
b111000 |
b111000 n"
b111000 p"
b11111111111111111111111111001111 2
b11111111111111111111111111001111 h"
b11111111111111111111111111001111 m"
b11111111111111111111111111001111 w"
b11111111111111111111111111001111 {"
b1000000000010110000100011 ,
b1000000000010110000100011 W"
b1000000000010110000100011 ##
b10000 ?
b10000 s
b10000 U"
b11100 E
b11100 +"
b11100 I"
b111000 I
b111000 D"
b111000 j"
b11111111111111111111111111101000 J
b11111111111111111111111111101000 B"
b11111111111111111111111111101000 e"
b11111111111111111111111111100110 W
b11111111111111111111111111100110 x
b11111111111111111111111111100110 %"
b11111111111111111111111110110101 [
b11111111111111111111111110110101 y
b11111111111111111111111110110101 ~
b11111111111111111111111110110101 Z"
b11111111111111111111111110110101 f"
b11111111111111111111111110110101 k"
b11111111111111111111111111001111 =
b11111111111111111111111111001111 ^"
b11111111111111111111111111001111 v"
0"
#275
b11100 3
b11100 t"
b11100 x"
b1111000001000000100110011 >
b1111000001000000100110011 R"
b1111000001000000100110011 X"
b11100 _
b11100 p
b11100 s"
b11111111111111111111111110110101 ]"
b111000 $"
b11111111111111111111111111101101 }
b11000 J"
b10000 H"
b0 F"
b10 N"
b11000 L"
b11111111111111111111111111001111 C"
b0 A"
1="
b0 ;"
1@"
0E"
b1000001111011111000000010110011 V"
b10100 T"
b11000 +
b11000 o
b11000 S"
b11000 Y"
b11000 y"
b110 $
1"
#300
b111110 /
b111110 :"
b111110 !#
0L
1H
b10 T
b10 v
b10 2"
0R
b11000 `
b11000 j
b11000 z
b111100 .
b111100 9"
b111100 ~"
b1 5"
b11110 4"
b11111 3"
b0 6"
b100000 7"
b11110 0"
b11111 /"
b11110 }"
b11111 |"
b110011 u
b10 5
b10 ."
b10 l"
b0 7
b0 -"
b0 g"
b11000 4
b11000 g
b11000 q"
b111 a
b111 i
b111 n
b0 8
b0 h
b0 i"
b11111111111111111111111111101101 6
b11111111111111111111111111101101 |
b11111111111111111111111111101101 n"
b11111111111111111111111111101101 p"
b11111111111111111111111110110101 2
b11111111111111111111111110110101 h"
b11111111111111111111111110110101 m"
b11111111111111111111111110110101 w"
b11111111111111111111111110110101 {"
b1000001111011111000000010110011 ,
b1000001111011111000000010110011 W"
b1000001111011111000000010110011 ##
b1000100 ]
b1000100 t
b1000100 r"
b10100 ?
b10100 s
b10100 U"
b11000 D
b11000 {
b11000 1"
b11000 K"
b10000 E
b10000 +"
b10000 I"
b0 F
b0 ,"
b0 G"
b10 A
b10 l
b10 O"
b11000 B
b11000 M"
b11000 o"
b11111111111111111111111111001111 I
b11111111111111111111111111001111 D"
b11111111111111111111111111001111 j"
b0 J
b0 B"
b0 e"
1Q
b0 S
b0 m
b0 <"
1K
0G
b111000 W
b111000 x
b111000 %"
b11111111111111111111111111101101 [
b11111111111111111111111111101101 y
b11111111111111111111111111101101 ~
b11111111111111111111111111101101 Z"
b11111111111111111111111111101101 f"
b11111111111111111111111111101101 k"
b11111111111111111111111110110101 =
b11111111111111111111111110110101 ^"
b11111111111111111111111110110101 v"
0"
#325
b100000 3
b100000 t"
b100000 x"
b1000000001000010101000110010011 >
b1000000001000010101000110010011 R"
b1000000001000010101000110010011 X"
b100000 _
b100000 p
b100000 s"
b11111111111111111111111111101101 ]"
b11000 '"
b11111111111111111111111111101101 $"
b11000 }
1#"
0&"
b1 J"
b11110 H"
b11111 F"
b0 N"
b100000 P"
b111100 C"
b111110 A"
0="
b10 ;"
0@"
1E"
b1111000001000000100110011 V"
b11000 T"
b11100 +
b11100 o
b11100 S"
b11100 Y"
b11100 y"
b111 $
1"
#350
b0 /
b0 :"
b0 !#
b10 `
b10 j
b10 z
b10 5"
b1 3"
b0 7"
b1 /"
b1 |"
b111100 4
b111100 g
b111100 q"
b1 a
b1 i
b1 n
b111110 8
b111110 h
b111110 i"
b111100 6
b111100 |
b111100 n"
b111100 p"
b0 5
b0 ."
b0 l"
b11111111111111111111111111101101 2
b11111111111111111111111111101101 h"
b11111111111111111111111111101101 m"
b11111111111111111111111111101101 w"
b11111111111111111111111111101101 {"
b1111000001000000100110011 ,
b1111000001000000100110011 W"
b1111000001000000100110011 ##
b1001000 ]
b1001000 t
b1001000 r"
b11000 ?
b11000 s
b11000 U"
b1 D
b1 {
b1 1"
b1 K"
b11110 E
b11110 +"
b11110 I"
b11111 F
b11111 ,"
b11111 G"
b0 A
b0 l
b0 O"
b100000 @
b100000 k
b100000 Q"
b111100 I
b111100 D"
b111100 j"
b111110 J
b111110 B"
b111110 e"
0Q
b10 S
b10 m
b10 <"
0K
1G
b11000 U
b11000 ("
b11000 )"
b11000 \"
b11111111111111111111111111101101 W
b11111111111111111111111111101101 x
b11111111111111111111111111101101 %"
b11000 [
b11000 y
b11000 ~
b11000 Z"
b11000 f"
b11000 k"
1X
0V
b11111111111111111111111111101101 =
b11111111111111111111111111101101 ^"
b11111111111111111111111111101101 v"
0"
#375
b100100 3
b100100 t"
b100100 x"
b1000000000011010010011 >
b1000000000011010010011 R"
b1000000000011010010011 X"
b100100 _
b100100 p
b100100 s"
b11000 c"
b11000 ]"
0b"
b1 '"
b111100 $"
b10 }
0#"
1&"
b10 J"
b1 F"
b0 P"
b0 A"
b1000000001000010101000110010011 V"
b11100 T"
b100000 +
b100000 o
b100000 S"
b100000 Y"
b100000 y"
b1000 $
1"
#400
0c
1q
b100000000100 r
b0 .
b0 9"
b0 ~"
b11 T
b11 v
b11 2"
1R
b111110 `
b111110 j
b111110 z
b10000000010 -
b10000000010 8"
b10000000010 $#
b11 5"
b10 4"
b10 3"
b101 6"
b100000 7"
b10 0"
b10 /"
b10 }"
b10 |"
b10011 u
b0 a
b0 i
b0 n
b10 8
b10 h
b10 i"
b11000 2
b11000 h"
b11000 m"
b11000 w"
b11000 {"
b10 7
b10 -"
b10 g"
b1000000001000010101000110010011 ,
b1000000001000010101000110010011 W"
b1000000001000010101000110010011 ##
b100000100000 ]
b100000100000 t
b100000100000 r"
b11100 ?
b11100 s
b11100 U"
b10 D
b10 {
b10 1"
b10 K"
b1 F
b1 ,"
b1 G"
b0 @
b0 k
b0 Q"
b0 J
b0 B"
b0 e"
b1 U
b1 ("
b1 )"
b1 \"
b111100 W
b111100 x
b111100 %"
b10 [
b10 y
b10 ~
b10 Z"
b10 f"
b10 k"
0X
1V
b11000 9
b11000 *"
b11000 d"
b11000 z"
b11000 =
b11000 ^"
b11000 v"
0:
0"
#425
b101000 3
b101000 t"
b101000 x"
b110111110001011110110011 >
b110111110001011110110011 R"
b110111110001011110110011 X"
b101000 _
b101000 p
b101000 s"
b1 c"
b10 ]"
1b"
b10 '"
b111110 }
b11 J"
b10 H"
b10 F"
b101 N"
b100000 P"
b10000000010 L"
b0 C"
1="
b11 ;"
b1000000000011010010011 V"
b100000 T"
b100100 +
b100100 o
b100100 S"
b100100 Y"
b100100 y"
b1001 $
1"
#450
1c
b100 r
b1111 `
b1111 j
b1111 z
b10 -
b10 8"
b10 $#
b1101 5"
b0 3"
b0 6"
b0 7"
b0 /"
b0 |"
b10000000010 4
b10000000010 g
b10000000010 q"
b110 a
b110 i
b110 n
b111110 8
b111110 h
b111110 i"
b111110 6
b111110 |
b111110 n"
b111110 p"
b10 2
b10 h"
b10 m"
b10 w"
b10 {"
b10 5
b10 ."
b10 l"
b10 7
b10 -"
b10 g"
b1000000000011010010011 ,
b1000000000011010010011 W"
b1000000000011010010011 ##
b100100 ]
b100100 t
b100100 r"
b100000 ?
b100000 s
b100000 U"
b11 D
b11 {
b11 1"
b11 K"
b10 E
b10 +"
b10 I"
b10 F
b10 ,"
b10 G"
b101 A
b101 l
b101 O"
b100000 @
b100000 k
b100000 Q"
b10000000010 B
b10000000010 M"
b10000000010 o"
b0 I
b0 D"
b0 j"
1Q
b11 S
b11 m
b11 <"
b10 U
b10 ("
b10 )"
b10 \"
b111110 [
b111110 y
b111110 ~
b111110 Z"
b111110 f"
b111110 k"
b1 9
b1 *"
b1 d"
b1 z"
b10 =
b10 ^"
b10 v"
1:
0"
#475
b101100 3
b101100 t"
b101100 x"
b1100000010101000100011 >
b1100000010101000100011 R"
b1100000010101000100011 X"
b101100 _
b101100 p
b101100 s"
b10 c"
b111110 ]"
b11 '"
b111110 $"
b1111 }
b1101 J"
b0 F"
b0 N"
b0 P"
b10 L"
b110111110001011110110011 V"
b100100 T"
b101000 +
b101000 o
b101000 S"
b101000 Y"
b101000 y"
b1010 $
1"
