log/waveform_1.vcd
$date
	Thu Dec  7 09:31:54 2023
$end
$version
	Icarus Verilog
$end
$timescale
	1s
$end
$scope module TestBench $end
$var reg 1 ! Clk $end
$var reg 1 " Reset $end
$var integer 32 # counter [31:0] $end
$var integer 32 $ flush [31:0] $end
$var integer 32 % i [31:0] $end
$var integer 32 & outfile [31:0] $end
$var integer 32 ' stall [31:0] $end
$scope module CPU $end
$var wire 1 ( ID_FlushIF $end
$var wire 1 ! clk_i $end
$var wire 1 " rst_i $end
$var wire 1 ) stall $end
$var wire 32 * pc_o [31:0] $end
$var wire 32 + instr_o [31:0] $end
$var wire 32 , Sign_Extend_extended_im [31:0] $end
$var wire 32 - Register_RS2data_o [31:0] $end
$var wire 32 . Register_RS1data_o [31:0] $end
$var wire 1 / PCWrite $end
$var wire 1 0 NoOp $end
$var wire 32 1 MUX_WB_o [31:0] $end
$var wire 32 2 MUX_PC_o [31:0] $end
$var wire 32 3 MUX_ALUSrc_o [31:0] $end
$var wire 2 4 MUX3_RD2_signal [1:0] $end
$var wire 32 5 MUX3_RD2_data_o [31:0] $end
$var wire 2 6 MUX3_RD1_signal [1:0] $end
$var wire 32 7 MUX3_RD1_data_o [31:0] $end
$var wire 5 8 MEMWB_RegisterRd_o [4:0] $end
$var wire 1 9 MEMWB_RegWrite_o $end
$var wire 32 : MEMWB_ReadData_o [31:0] $end
$var wire 1 ; MEMWB_MemToReg_o $end
$var wire 32 < MEMWB_ALUres_o [31:0] $end
$var wire 32 = Instruction_Memory_instr_o [31:0] $end
$var wire 32 > IFID_PC_o [31:0] $end
$var wire 7 ? IDEX_func7_o [6:0] $end
$var wire 3 @ IDEX_func3_o [2:0] $end
$var wire 32 A IDEX_extended_im_o [31:0] $end
$var wire 1 B IDEX_branch $end
$var wire 5 C IDEX_RegisterRd_o [4:0] $end
$var wire 5 D IDEX_RegisterR2_o [4:0] $end
$var wire 5 E IDEX_RegisterR1_o [4:0] $end
$var wire 1 F IDEX_RegWrite_o $end
$var wire 1 G IDEX_RegWrite $end
$var wire 32 H IDEX_RS2data_o [31:0] $end
$var wire 32 I IDEX_RS1data_o [31:0] $end
$var wire 1 J IDEX_MemWrite_o $end
$var wire 1 K IDEX_MemWrite $end
$var wire 1 L IDEX_MemToReg_o $end
$var wire 1 M IDEX_MemToReg $end
$var wire 1 N IDEX_MemRead_o $end
$var wire 1 O IDEX_MemRead $end
$var wire 1 P IDEX_ALUSrc_o $end
$var wire 1 Q IDEX_ALUSrc $end
$var wire 2 R IDEX_ALUOp_o [1:0] $end
$var wire 2 S IDEX_ALUOp [1:0] $end
$var wire 5 T EXMEM_RegisterRd_o [4:0] $end
$var wire 1 U EXMEM_RegWrite_o $end
$var wire 32 V EXMEM_RS2data_o [31:0] $end
$var wire 1 W EXMEM_MemWrite_o $end
$var wire 1 X EXMEM_MemToReg_o $end
$var wire 1 Y EXMEM_MemRead_o $end
$var wire 32 Z EXMEM_ALUres_o [31:0] $end
$var wire 32 [ Data_Memory_data_o [31:0] $end
$var wire 32 \ Branch_PC_o [31:0] $end
$var wire 1 ] And_rd1_rd2_branch_data_o $end
$var wire 32 ^ Add_PC_pc_o [31:0] $end
$var wire 32 _ ALU_ALUres [31:0] $end
$var wire 3 ` ALU_ALUctrl [2:0] $end
$var reg 1 a And_rd1_rd2_branch_data_o_reg $end
$var reg 1 b MEMWB_RegWrite_o_reg $end
$var reg 1 c NoOp_reg $end
$var reg 1 d PCWrite_reg $end
$var reg 1 e stall_reg $end
$scope module ALU $end
$var wire 32 f readData2 [31:0] $end
$var wire 32 g readData1 [31:0] $end
$var wire 3 h ALUctrl [2:0] $end
$var reg 32 i ALUres [31:0] $end
$upscope $end
$scope module ALU_Control $end
$var wire 7 j func7 [6:0] $end
$var wire 3 k func3 [2:0] $end
$var wire 2 l ALUOp [1:0] $end
$var reg 3 m ALUctrl [2:0] $end
$upscope $end
$scope module Add_PC $end
$var wire 32 n pc_i [31:0] $end
$var reg 32 o pc_o [31:0] $end
$upscope $end
$scope module And_rd1_rd2_branch $end
$var wire 1 p data2_i $end
$var wire 1 ] data_o $end
$var wire 1 B data1_i $end
$upscope $end
$scope module Branch_PC $end
$var wire 32 q src1 [31:0] $end
$var wire 32 r src2 [31:0] $end
$var wire 32 s AdderRes [31:0] $end
$upscope $end
$scope module Control $end
$var wire 1 c NoOp $end
$var wire 7 t ctrlCode [6:0] $end
$var reg 2 u ALUOp [1:0] $end
$var reg 1 Q ALUSrc $end
$var reg 1 B Branch_o $end
$var reg 1 O MemRead $end
$var reg 1 M MemToReg $end
$var reg 1 K MemWrite $end
$var reg 1 G RegWrite $end
$upscope $end
$scope module Data_Memory $end
$var wire 1 ! clk_i $end
$var wire 32 v data_o [31:0] $end
$var wire 32 w data_i [31:0] $end
$var wire 32 x addr_i [31:0] $end
$var wire 1 W MemWrite_i $end
$var wire 1 Y MemRead_i $end
$upscope $end
$scope module EXMEM_register $end
$var wire 32 y ALUres_i [31:0] $end
$var wire 1 ! clk_i $end
$var wire 1 " rst_i $end
$var wire 5 z RegisterRd_i [4:0] $end
$var wire 1 F RegWrite_i $end
$var wire 32 { RS2data_i [31:0] $end
$var wire 1 J MemWrite_i $end
$var wire 1 L MemToReg_i $end
$var wire 1 N MemRead_i $end
$var reg 32 | ALUres [31:0] $end
$var reg 32 } ALUres_o [31:0] $end
$var reg 1 ~ MemRead $end
$var reg 1 Y MemRead_o $end
$var reg 1 !" MemToReg $end
$var reg 1 X MemToReg_o $end
$var reg 1 "" MemWrite $end
$var reg 1 W MemWrite_o $end
$var reg 32 #" RS2data [31:0] $end
$var reg 32 $" RS2data_o [31:0] $end
$var reg 1 %" RegWrite $end
$var reg 1 U RegWrite_o $end
$var reg 5 &" RegisterRd [4:0] $end
$var reg 5 '" RegisterRd_o [4:0] $end
$upscope $end
$scope module ForwardingUnit $end
$var wire 5 (" EXMEM_Rd [4:0] $end
$var wire 1 U EXMEM_RegWrite $end
$var wire 1 9 MEMWB_RegWrite $end
$var wire 5 )" MEMWB_Rd [4:0] $end
$var wire 5 *" IDEX_Rs2 [4:0] $end
$var wire 5 +" IDEX_Rs1 [4:0] $end
$var reg 2 ," ForwardA [1:0] $end
$var reg 2 -" ForwardB [1:0] $end
$upscope $end
$scope module Hazard_Detection $end
$var wire 5 ." IFID_Rs1 [4:0] $end
$var wire 5 /" IFID_Rs2 [4:0] $end
$var wire 5 0" IDEX_Rd [4:0] $end
$var wire 1 N IDEX_MemRead $end
$var reg 1 0 NoOp $end
$var reg 1 / PCWrite $end
$var reg 1 ) Stall_o $end
$upscope $end
$scope module IDEX_register $end
$var wire 2 1" ALUOp_i [1:0] $end
$var wire 1 Q ALUSrc_i $end
$var wire 1 O MemRead_i $end
$var wire 1 M MemToReg_i $end
$var wire 1 K MemWrite_i $end
$var wire 1 G RegWrite_i $end
$var wire 5 2" RegisterR1_i [4:0] $end
$var wire 5 3" RegisterR2_i [4:0] $end
$var wire 5 4" RegisterRd_i [4:0] $end
$var wire 1 ! clk_i $end
$var wire 3 5" func3_i [2:0] $end
$var wire 7 6" func7_i [6:0] $end
$var wire 1 " rst_i $end
$var wire 32 7" extended_im_i [31:0] $end
$var wire 32 8" RS2data_i [31:0] $end
$var wire 32 9" RS1data_i [31:0] $end
$var reg 2 :" ALUOp [1:0] $end
$var reg 2 ;" ALUOp_o [1:0] $end
$var reg 1 <" ALUSrc $end
$var reg 1 P ALUSrc_o $end
$var reg 1 =" MemRead $end
$var reg 1 N MemRead_o $end
$var reg 1 >" MemToReg $end
$var reg 1 L MemToReg_o $end
$var reg 1 ?" MemWrite $end
$var reg 1 J MemWrite_o $end
$var reg 32 @" RS1data [31:0] $end
$var reg 32 A" RS1data_o [31:0] $end
$var reg 32 B" RS2data [31:0] $end
$var reg 32 C" RS2data_o [31:0] $end
$var reg 1 D" RegWrite $end
$var reg 1 F RegWrite_o $end
$var reg 5 E" RegisterR1 [4:0] $end
$var reg 5 F" RegisterR1_o [4:0] $end
$var reg 5 G" RegisterR2 [4:0] $end
$var reg 5 H" RegisterR2_o [4:0] $end
$var reg 5 I" RegisterRd [4:0] $end
$var reg 5 J" RegisterRd_o [4:0] $end
$var reg 32 K" extended_im [31:0] $end
$var reg 32 L" extended_im_o [31:0] $end
$var reg 3 M" func3 [2:0] $end
$var reg 3 N" func3_o [2:0] $end
$var reg 7 O" func7 [6:0] $end
$var reg 7 P" func7_o [6:0] $end
$upscope $end
$scope module IFID_register $end
$var wire 1 a IFID_flush_i $end
$var wire 1 e IFID_stall_i $end
$var wire 1 ! clk_i $end
$var wire 1 " rst_i $end
$var wire 32 Q" instruction_i [31:0] $end
$var wire 32 R" PC_i [31:0] $end
$var reg 32 S" PC [31:0] $end
$var reg 32 T" PC_o [31:0] $end
$var reg 32 U" instruction [31:0] $end
$var reg 32 V" instruction_o [31:0] $end
$upscope $end
$scope module Instruction_Memory $end
$var wire 32 W" instr_o [31:0] $end
$var wire 32 X" addr_i [31:0] $end
$upscope $end
$scope module MEMWB_register $end
$var wire 32 Y" ALUres_i [31:0] $end
$var wire 1 X MemToReg_i $end
$var wire 32 Z" ReadData_i [31:0] $end
$var wire 1 U RegWrite_i $end
$var wire 5 [" RegisterRd_i [4:0] $end
$var wire 1 ! clk_i $end
$var wire 1 " rst_i $end
$var reg 32 \" ALUres [31:0] $end
$var reg 32 ]" ALUres_o [31:0] $end
$var reg 1 ^" MemToReg $end
$var reg 1 ; MemToReg_o $end
$var reg 32 _" ReadData [31:0] $end
$var reg 32 `" ReadData_o [31:0] $end
$var reg 1 a" RegWrite $end
$var reg 1 9 RegWrite_o $end
$var reg 5 b" RegisterRd [4:0] $end
$var reg 5 c" RegisterRd_o [4:0] $end
$upscope $end
$scope module MUX3_RD1 $end
$var wire 32 d" data1_i [31:0] $end
$var wire 32 e" data3_i [31:0] $end
$var wire 2 f" signal [1:0] $end
$var wire 32 g" data2_i [31:0] $end
$var reg 32 h" data_o [31:0] $end
$upscope $end
$scope module MUX3_RD2 $end
$var wire 32 i" data1_i [31:0] $end
$var wire 32 j" data3_i [31:0] $end
$var wire 2 k" signal [1:0] $end
$var wire 32 l" data2_i [31:0] $end
$var reg 32 m" data_o [31:0] $end
$upscope $end
$scope module MUX_ALUSrc $end
$var wire 1 P ALUSrc $end
$var wire 32 n" im [31:0] $end
$var wire 32 o" readData1 [31:0] $end
$var wire 32 p" readData2 [31:0] $end
$upscope $end
$scope module MUX_PC $end
$var wire 1 a ALUSrc $end
$var wire 32 q" im [31:0] $end
$var wire 32 r" readData1 [31:0] $end
$var wire 32 s" readData2 [31:0] $end
$upscope $end
$scope module MUX_WB $end
$var wire 1 ; ALUSrc $end
$var wire 32 t" im [31:0] $end
$var wire 32 u" readData1 [31:0] $end
$var wire 32 v" readData2 [31:0] $end
$upscope $end
$scope module PC $end
$var wire 1 d PCWrite_i $end
$var wire 1 ! clk_i $end
$var wire 32 w" pc_i [31:0] $end
$var wire 1 " rst_i $end
$var reg 32 x" pc_o [31:0] $end
$upscope $end
$scope module Registers $end
$var wire 5 y" RDaddr_i [4:0] $end
$var wire 32 z" RDdata_i [31:0] $end
$var wire 5 {" RS1addr_i [4:0] $end
$var wire 5 |" RS2addr_i [4:0] $end
$var wire 1 b RegWrite_i $end
$var wire 1 ! clk_i $end
$var wire 1 " rst_i $end
$var wire 32 }" RS2data_o [31:0] $end
$var wire 32 ~" RS1data_o [31:0] $end
$var integer 32 !# i [31:0] $end
$upscope $end
$scope module Sign_Extend $end
$var wire 32 "# im [31:0] $end
$var reg 32 ## extended_im [31:0] $end
$upscope $end
$upscope $end
$upscope $end
$enddefinitions $end
#0
$dumpvars
bx ##
bx "#
bx !#
bx ~"
bx }"
bx |"
bx {"
bx z"
bx y"
bx x"
bx w"
bx v"
bx u"
bx t"
bx s"
bx r"
bx q"
bx p"
bx o"
bx n"
bx m"
bx l"
bx k"
bx j"
bx i"
bx h"
bx g"
bx f"
bx e"
bx d"
bx c"
bx b"
xa"
bx `"
bx _"
x^"
bx ]"
bx \"
bx ["
bx Z"
bx Y"
bx X"
bx W"
bx V"
bx U"
bx T"
bx S"
bx R"
bx Q"
bx P"
bx O"
bx N"
bx M"
bx L"
bx K"
bx J"
bx I"
bx H"
bx G"
bx F"
bx E"
xD"
bx C"
bx B"
bx A"
bx @"
x?"
x>"
x="
x<"
bx ;"
bx :"
bx 9"
bx 8"
bx 7"
bx 6"
bx 5"
bx 4"
bx 3"
bx 2"
b0 1"
bx 0"
bx /"
bx ."
bx -"
bx ,"
bx +"
bx *"
bx )"
bx ("
bx '"
bx &"
x%"
bx $"
bx #"
x""
x!"
x~
bx }
bx |
bx {
bx z
bx y
bx x
bx w
bx v
b0 u
bx t
bx s
bx r
bx0 q
xp
bx o
bx n
bx m
bx l
bx k
bx j
bx i
bx h
bx g
bx f
0e
1d
0c
0b
0a
bx `
bx _
bx ^
0]
bx \
bx [
bx Z
xY
xX
xW
bx V
xU
bx T
b0 S
bx R
0Q
xP
0O
xN
0M
xL
0K
xJ
bx I
bx H
0G
xF
bx E
bx D
bx C
0B
bx A
bx @
bx ?
bx >
bx =
bx <
x;
bx :
x9
bx 8
bx 7
bx 6
bx 5
bx 4
bx 3
bx 2
bx 1
x0
x/
bx .
bx -
bx ,
bx +
bx *
x)
0(
b0 '
b11 &
b100000 %
b0 $
b0 #
1"
0!
$end
#6
b100 2
b100 s"
b100 w"
b101000000000001000010011 =
b101000000000001000010011 Q"
b101000000000001000010011 W"
b100 ^
b100 o
b100 r"
b0 *
b0 n
b0 R"
b0 X"
b0 x"
b100000 !#
0"
#12
1"
#25
b1000 2
b1000 s"
b1000 w"
b110000000000001010010011 =
b110000000000001010010011 Q"
b110000000000001010010011 W"
b1000 ^
b1000 o
b1000 r"
0<"
b0 :"
0?"
0="
0>"
0D"
b101000000000001000010011 U"
b0 S"
b100 *
b100 n
b100 R"
b100 X"
b100 x"
b1 #
1!
#50
1p
b10100 \
b10100 s
b10100 q"
b10100 q
b0 -
b0 8"
b0 }"
b0 .
b0 9"
b0 ~"
1G
b11 S
b11 u
b11 1"
1Q
b1010 ,
b1010 7"
b1010 ##
b100 4"
b1010 3"
b0 2"
b0 5"
b0 6"
b1010 /"
b0 ."
b1010 |"
b0 {"
b10011 t
b111 `
b111 h
b111 m
00
1/
0)
b101000000000001000010011 +
b101000000000001000010011 V"
b101000000000001000010011 "#
b0 >
b0 r
b0 T"
0P
b0 R
b0 l
b0 ;"
0J
0N
0L
0F
0!
#75
b1100 2
b1100 s"
b1100 w"
b11111111001100000000001100010011 =
b11111111001100000000001100010011 Q"
b11111111001100000000001100010011 W"
b1100 ^
b1100 o
b1100 r"
0""
0~
0!"
0%"
b100 I"
b1010 G"
b0 E"
b0 M"
b0 O"
b1010 K"
b0 B"
b0 @"
1<"
b11 :"
1D"
b110000000000001010010011 U"
b100 S"
b1000 *
b1000 n
b1000 R"
b1000 X"
b1000 x"
b10 #
1!
#100
b11000 q
b1010 _
b1010 i
b1010 y
b1100 ,
b1100 7"
b1100 ##
b101 4"
b1100 3"
b1100 /"
b1100 |"
b0 5
b0 {
b0 m"
b0 o"
b0 7
b0 g
b0 h"
b1010 3
b1010 f
b1010 p"
b0 [
b0 v
b0 Z"
b0 4
b0 -"
b0 k"
b0 6
b0 ,"
b0 f"
b110000000000001010010011 +
b110000000000001010010011 V"
b110000000000001010010011 "#
b11100 \
b11100 s
b11100 q"
b100 >
b100 r
b100 T"
b100 C
b100 z
b100 0"
b100 J"
b1010 D
b1010 *"
b1010 H"
b0 E
b0 +"
b0 F"
b0 @
b0 k
b0 N"
b0 ?
b0 j
b0 P"
b1010 A
b1010 L"
b1010 n"
b0 H
b0 C"
b0 i"
b0 I
b0 A"
b0 d"
1P
b11 R
b11 l
b11 ;"
1F
0W
0Y
0X
0U
0!
#125
b10000 2
b10000 s"
b10000 w"
b1000000000000001110010011 =
b1000000000000001110010011 Q"
b1000000000000001110010011 W"
b10000 ^
b10000 o
b10000 r"
b0 _"
0^"
0a"
b100 &"
b0 #"
b1010 |
1%"
b101 I"
b1100 G"
b1100 K"
b11111111001100000000001100010011 U"
b1000 S"
b1100 *
b1100 n
b1100 R"
b1100 X"
b1100 x"
b11 #
1!
#150
b11111111111111111111111111100110 q
b1100 _
b1100 i
b1100 y
b11111111111111111111111111110011 ,
b11111111111111111111111111110011 7"
b11111111111111111111111111110011 ##
b110 4"
b10011 3"
b1111111 6"
b10011 /"
b10011 |"
b1100 3
b1100 f
b1100 p"
b11111111001100000000001100010011 +
b11111111001100000000001100010011 V"
b11111111001100000000001100010011 "#
b11111111111111111111111111101110 \
b11111111111111111111111111101110 s
b11111111111111111111111111101110 q"
b1000 >
b1000 r
b1000 T"
b101 C
b101 z
b101 0"
b101 J"
b1100 D
b1100 *"
b1100 H"
b1100 A
b1100 L"
b1100 n"
b100 T
b100 '"
b100 ("
b100 ["
b0 V
b0 w
b0 $"
b1010 Z
b1010 x
b1010 }
b1010 Y"
b1010 e"
b1010 j"
1U
b0 :
b0 `"
b0 t"
0;
09
0!
#175
b10100 2
b10100 s"
b10100 w"
b10010000000011 =
b10010000000011 Q"
b10010000000011 W"
b10100 ^
b10100 o
b10100 r"
b100 b"
b1010 \"
1a"
b101 &"
b1100 |
b110 I"
b10011 G"
b1111111 O"
b11111111111111111111111111110011 K"
b1000000000000001110010011 U"
b1100 S"
b10000 *
b10000 n
b10000 R"
b10000 X"
b10000 x"
b100 #
1!
#200
1b
b100000 q
b11111111111111111111111111110011 _
b11111111111111111111111111110011 i
b11111111111111111111111111110011 y
b10000 ,
b10000 7"
b10000 ##
b111 4"
b10000 3"
b0 6"
b10000 /"
b10000 |"
b11111111111111111111111111110011 3
b11111111111111111111111111110011 f
b11111111111111111111111111110011 p"
b1010 1
b1010 g"
b1010 l"
b1010 v"
b1010 z"
b1000000000000001110010011 +
b1000000000000001110010011 V"
b1000000000000001110010011 "#
b101100 \
b101100 s
b101100 q"
b1100 >
b1100 r
b1100 T"
b110 C
b110 z
b110 0"
b110 J"
b10011 D
b10011 *"
b10011 H"
b1111111 ?
b1111111 j
b1111111 P"
b11111111111111111111111111110011 A
b11111111111111111111111111110011 L"
b11111111111111111111111111110011 n"
b101 T
b101 '"
b101 ("
b101 ["
b1100 Z
b1100 x
b1100 }
b1100 Y"
b1100 e"
b1100 j"
b100 8
b100 )"
b100 c"
b100 y"
b1010 <
b1010 ]"
b1010 u"
19
0!
#225
b11000 2
b11000 s"
b11000 w"
b10000000010010010000011 =
b10000000010010010000011 Q"
b10000000010010010000011 W"
b11000 ^
b11000 o
b11000 r"
b101 b"
b1100 \"
b110 &"
b11111111111111111111111111110011 |
b111 I"
b10000 G"
b0 O"
b10000 K"
b10010000000011 U"
b10000 S"
b10100 *
b10100 n
b10100 R"
b10100 X"
b10100 x"
b101 #
1!
#250
b0 q
1M
1O
b0 S
b0 u
b0 1"
b10000 _
b10000 i
b10000 y
b0 ,
b0 7"
b0 ##
b1000 4"
b0 3"
b10 5"
b0 /"
b0 |"
b11 t
b10000 3
b10000 f
b10000 p"
b1100 1
b1100 g"
b1100 l"
b1100 v"
b1100 z"
b10010000000011 +
b10010000000011 V"
b10010000000011 "#
b10000 \
b10000 s
b10000 q"
b10000 >
b10000 r
b10000 T"
b111 C
b111 z
b111 0"
b111 J"
b10000 D
b10000 *"
b10000 H"
b0 ?
b0 j
b0 P"
b10000 A
b10000 L"
b10000 n"
b110 T
b110 '"
b110 ("
b110 ["
b11111111111111111111111111110011 Z
b11111111111111111111111111110011 x
b11111111111111111111111111110011 }
b11111111111111111111111111110011 Y"
b11111111111111111111111111110011 e"
b11111111111111111111111111110011 j"
b101 8
b101 )"
b101 c"
b101 y"
b1100 <
b1100 ]"
b1100 u"
0!
#275
b11100 2
b11100 s"
b11100 w"
b100000000010010100000011 =
b100000000010010100000011 Q"
b100000000010010100000011 W"
b11100 ^
b11100 o
b11100 r"
b110 b"
b11111111111111111111111111110011 \"
b111 &"
b10000 |
b1000 I"
b0 G"
b10 M"
b0 K"
b0 :"
1="
1>"
b10000000010010010000011 U"
b10100 S"
b11000 *
b11000 n
b11000 R"
b11000 X"
b11000 x"
b110 #
1!
#300
0p
b1000 q
b1010 -
b1010 8"
b1010 }"
b0 _
b0 i
b0 y
b100 ,
b100 7"
b100 ##
b1001 4"
b100 3"
b100 /"
b100 |"
b0 3
b0 f
b0 p"
b11111111111111111111111111110011 1
b11111111111111111111111111110011 g"
b11111111111111111111111111110011 l"
b11111111111111111111111111110011 v"
b11111111111111111111111111110011 z"
b10000000010010010000011 +
b10000000010010010000011 V"
b10000000010010010000011 "#
b11100 \
b11100 s
b11100 q"
b10100 >
b10100 r
b10100 T"
b1000 C
b1000 z
b1000 0"
b1000 J"
b0 D
b0 *"
b0 H"
b10 @
b10 k
b10 N"
b0 A
b0 L"
b0 n"
b0 R
b0 l
b0 ;"
1N
1L
b111 T
b111 '"
b111 ("
b111 ["
b10000 Z
b10000 x
b10000 }
b10000 Y"
b10000 e"
b10000 j"
b110 8
b110 )"
b110 c"
b110 y"
b11111111111111111111111111110011 <
b11111111111111111111111111110011 ]"
b11111111111111111111111111110011 u"
0!
#325
b100000 2
b100000 s"
b100000 w"
b11000101010000000100011 =
b11000101010000000100011 Q"
b11000101010000000100011 W"
b100000 ^
b100000 o
b100000 r"
b111 b"
b10000 \"
b1000 &"
b0 |
1~
1!"
b1001 I"
b100 G"
b100 K"
b1010 B"
b100000000010010100000011 U"
b11000 S"
b11100 *
b11100 n
b11100 R"
b11100 X"
b11100 x"
b111 #
1!
#350
1p
b10000 q
b0 -
b0 8"
b0 }"
b100 _
b100 i
b100 y
b1000 ,
b1000 7"
b1000 ##
b1010 4"
b1000 3"
b1000 /"
b1000 |"
b100 3
b100 f
b100 p"
b1010 5
b1010 {
b1010 m"
b1010 o"
b101 [
b101 v
b101 Z"
b10000 1
b10000 g"
b10000 l"
b10000 v"
b10000 z"
b100000000010010100000011 +
b100000000010010100000011 V"
b100000000010010100000011 "#
b101000 \
b101000 s
b101000 q"
b11000 >
b11000 r
b11000 T"
b1001 C
b1001 z
b1001 0"
b1001 J"
b100 D
b100 *"
b100 H"
b100 A
b100 L"
b100 n"
b1010 H
b1010 C"
b1010 i"
b1000 T
b1000 '"
b1000 ("
b1000 ["
b0 Z
b0 x
b0 }
b0 Y"
b0 e"
b0 j"
1Y
1X
b111 8
b111 )"
b111 c"
b111 y"
b10000 <
b10000 ]"
b10000 u"
0!
#375
b100100 2
b100100 s"
b100100 w"
b11100111000000100000110011 =
b11100111000000100000110011 Q"
b11100111000000100000110011 W"
b100100 ^
b100100 o
b100100 r"
b1000 b"
b101 _"
b0 \"
1^"
b1001 &"
b1010 #"
b100 |
b1010 I"
b1000 G"
b1000 K"
b0 B"
b11000101010000000100011 U"
b11100 S"
b100000 *
b100000 n
b100000 R"
b100000 X"
b100000 x"
b1000 #
1!
#400
0p
b0 q
b1100 .
b1100 9"
b1100 ~"
0M
1K
0O
0G
b1000 _
b1000 i
b1000 y
b110 [
b110 v
b110 Z"
b11111111111111111111111111110011 -
b11111111111111111111111111110011 8"
b11111111111111111111111111110011 }"
b0 ,
b0 7"
b0 ##
b0 4"
b110 3"
b101 2"
b110 /"
b101 ."
b110 |"
b101 {"
b100011 t
b1000 3
b1000 f
b1000 p"
b101 5
b101 {
b101 m"
b101 o"
b1 4
b1 -"
b1 k"
b101 1
b101 g"
b101 l"
b101 v"
b101 z"
b11000101010000000100011 +
b11000101010000000100011 V"
b11000101010000000100011 "#
b11100 \
b11100 s
b11100 q"
b11100 >
b11100 r
b11100 T"
b1010 C
b1010 z
b1010 0"
b1010 J"
b1000 D
b1000 *"
b1000 H"
b1000 A
b1000 L"
b1000 n"
b0 H
b0 C"
b0 i"
b1001 T
b1001 '"
b1001 ("
b1001 ["
b1010 V
b1010 w
b1010 $"
b100 Z
b100 x
b100 }
b100 Y"
b100 e"
b100 j"
b1000 8
b1000 )"
b1000 c"
b1000 y"
b101 :
b101 `"
b101 t"
b0 <
b0 ]"
b0 u"
1;
0!
#425
b101000 2
b101000 s"
b101000 w"
b11101111010000100010110011 =
b11101111010000100010110011 Q"
b11101111010000100010110011 W"
b101000 ^
b101000 o
b101000 r"
b1001 b"
b110 _"
b100 \"
b1010 &"
b101 #"
b1000 |
b0 I"
b110 G"
b101 E"
b0 K"
b11111111111111111111111111110011 B"
b1100 @"
1?"
0="
0>"
0D"
b11100111000000100000110011 U"
b100000 S"
b100100 *
b100100 n
b100100 R"
b100100 X"
b100100 x"
b1001 #
1!
#450
b11111111111111111111111111100111 -
b11111111111111111111111111100111 8"
b11111111111111111111111111100111 }"
b11111111111111111111111111101000 .
b11111111111111111111111111101000 9"
b11111111111111111111111111101000 ~"
0K
1G
b10 S
b10 u
b10 1"
0Q
b1010 [
b1010 v
b1010 Z"
b1100 _
b1100 i
b1100 y
b10000 4"
b11001 3"
b11000 2"
b0 5"
b1 6"
b11001 /"
b11000 ."
b11001 |"
b11000 {"
b110011 t
b0 3
b0 f
b0 p"
b1100 7
b1100 g
b1100 h"
b11111111111111111111111111110011 5
b11111111111111111111111111110011 {
b11111111111111111111111111110011 m"
b11111111111111111111111111110011 o"
b0 4
b0 -"
b0 k"
b110 1
b110 g"
b110 l"
b110 v"
b110 z"
b11100111000000100000110011 +
b11100111000000100000110011 V"
b11100111000000100000110011 "#
b100000 \
b100000 s
b100000 q"
b100000 >
b100000 r
b100000 T"
b0 C
b0 z
b0 0"
b0 J"
b110 D
b110 *"
b110 H"
b101 E
b101 +"
b101 F"
b0 A
b0 L"
b0 n"
b11111111111111111111111111110011 H
b11111111111111111111111111110011 C"
b11111111111111111111111111110011 i"
b1100 I
b1100 A"
b1100 d"
1J
0N
0L
0F
b1010 T
b1010 '"
b1010 ("
b1010 ["
b101 V
b101 w
b101 $"
b1000 Z
b1000 x
b1000 }
b1000 Y"
b1000 e"
b1000 j"
b1001 8
b1001 )"
b1001 c"
b1001 y"
b110 :
b110 `"
b110 t"
b100 <
b100 ]"
b100 u"
0!
#475
b101100 2
b101100 s"
b101100 w"
b11110111100000100100110011 =
b11110111100000100100110011 Q"
b11110111100000100100110011 W"
b101100 ^
b101100 o
b101100 r"
b1010 b"
b1010 _"
b1000 \"
b0 &"
b11111111111111111111111111110011 #"
b1100 |
1""
0~
0!"
0%"
b10000 I"
b11001 G"
b11000 E"
b0 M"
b1 O"
b11111111111111111111111111100111 B"
b11111111111111111111111111101000 @"
0<"
b10 :"
0?"
1D"
b11101111010000100010110011 U"
b100100 S"
b101000 *
b101000 n
b101000 R"
b101000 X"
b101000 x"
b1010 #
1!
#500
b11111111111111111111111111100101 -
b11111111111111111111111111100101 8"
b11111111111111111111111111100101 }"
b11111111111111111111111111100110 .
b11111111111111111111111111100110 9"
b11111111111111111111111111100110 ~"
b1001011000 _
b1001011000 i
b1001011000 y
b10001 4"
b11011 3"
b11010 2"
b11011 /"
b11010 ."
b11011 |"
b11010 {"
b11111111111111111111111111100111 3
b11111111111111111111111111100111 f
b11111111111111111111111111100111 p"
b101 `
b101 h
b101 m
b11111111111111111111111111101000 7
b11111111111111111111111111101000 g
b11111111111111111111111111101000 h"
b11111111111111111111111111100111 5
b11111111111111111111111111100111 {
b11111111111111111111111111100111 m"
b11111111111111111111111111100111 o"
b0 [
b0 v
b0 Z"
b1010 1
b1010 g"
b1010 l"
b1010 v"
b1010 z"
b11101111010000100010110011 +
b11101111010000100010110011 V"
b11101111010000100010110011 "#
b100100 \
b100100 s
b100100 q"
b100100 >
b100100 r
b100100 T"
b10000 C
b10000 z
b10000 0"
b10000 J"
b11001 D
b11001 *"
b11001 H"
b11000 E
b11000 +"
b11000 F"
b0 @
b0 k
b0 N"
b1 ?
b1 j
b1 P"
b11111111111111111111111111100111 H
b11111111111111111111111111100111 C"
b11111111111111111111111111100111 i"
b11111111111111111111111111101000 I
b11111111111111111111111111101000 A"
b11111111111111111111111111101000 d"
0P
b10 R
b10 l
b10 ;"
0J
1F
b0 T
b0 '"
b0 ("
b0 ["
b11111111111111111111111111110011 V
b11111111111111111111111111110011 w
b11111111111111111111111111110011 $"
b1100 Z
b1100 x
b1100 }
b1100 Y"
b1100 e"
b1100 j"
1W
0Y
0X
0U
b1010 8
b1010 )"
b1010 c"
b1010 y"
b1010 :
b1010 `"
b1010 t"
b1000 <
b1000 ]"
b1000 u"
0!
#525
b110000 2
b110000 s"
b110000 w"
b11111111110000100110110011 =
b11111111110000100110110011 Q"
b11111111110000100110110011 W"
b110000 ^
b110000 o
b110000 r"
b0 b"
b0 _"
b1100 \"
0^"
0a"
b10000 &"
b11111111111111111111111111100111 #"
b1001011000 |
0""
1%"
b10001 I"
b11011 G"
b11010 E"
b11111111111111111111111111100101 B"
b11111111111111111111111111100110 @"
b11110111100000100100110011 U"
b101000 S"
b101100 *
b101100 n
b101100 R"
b101100 X"
b101100 x"
b1011 #
1!
