log/waveform_2.vcd
$date
	Thu Dec  7 09:31:54 2023
$end
$version
	Icarus Verilog
$end
$timescale
	1s
$end
$scope module TestBench $end
$var reg 1 ! Clk $end
$var reg 1 " Reset $end
$var integer 32 # counter [31:0] $end
$var integer 32 $ flush [31:0] $end
$var integer 32 % i [31:0] $end
$var integer 32 & outfile [31:0] $end
$var integer 32 ' stall [31:0] $end
$scope module CPU $end
$var wire 1 ( ID_FlushIF $end
$var wire 1 ! clk_i $end
$var wire 1 " rst_i $end
$var wire 1 ) stall $end
$var wire 32 * pc_o [31:0] $end
$var wire 32 + instr_o [31:0] $end
$var wire 32 , Sign_Extend_extended_im [31:0] $end
$var wire 32 - Register_RS2data_o [31:0] $end
$var wire 32 . Register_RS1data_o [31:0] $end
$var wire 1 / PCWrite $end
$var wire 1 0 NoOp $end
$var wire 32 1 MUX_WB_o [31:0] $end
$var wire 32 2 MUX_PC_o [31:0] $end
$var wire 32 3 MUX_ALUSrc_o [31:0] $end
$var wire 2 4 MUX3_RD2_signal [1:0] $end
$var wire 32 5 MUX3_RD2_data_o [31:0] $end
$var wire 2 6 MUX3_RD1_signal [1:0] $end
$var wire 32 7 MUX3_RD1_data_o [31:0] $end
$var wire 5 8 MEMWB_RegisterRd_o [4:0] $end
$var wire 1 9 MEMWB_RegWrite_o $end
$var wire 32 : MEMWB_ReadData_o [31:0] $end
$var wire 1 ; MEMWB_MemToReg_o $end
$var wire 32 < MEMWB_ALUres_o [31:0] $end
$var wire 32 = Instruction_Memory_instr_o [31:0] $end
$var wire 32 > IFID_PC_o [31:0] $end
$var wire 7 ? IDEX_func7_o [6:0] $end
$var wire 3 @ IDEX_func3_o [2:0] $end
$var wire 32 A IDEX_extended_im_o [31:0] $end
$var wire 1 B IDEX_branch $end
$var wire 5 C IDEX_RegisterRd_o [4:0] $end
$var wire 5 D IDEX_RegisterR2_o [4:0] $end
$var wire 5 E IDEX_RegisterR1_o [4:0] $end
$var wire 1 F IDEX_RegWrite_o $end
$var wire 1 G IDEX_RegWrite $end
$var wire 32 H IDEX_RS2data_o [31:0] $end
$var wire 32 I IDEX_RS1data_o [31:0] $end
$var wire 1 J IDEX_MemWrite_o $end
$var wire 1 K IDEX_MemWrite $end
$var wire 1 L IDEX_MemToReg_o $end
$var wire 1 M IDEX_MemToReg $end
$var wire 1 N IDEX_MemRead_o $end
$var wire 1 O IDEX_MemRead $end
$var wire 1 P IDEX_ALUSrc_o $end
$var wire 1 Q IDEX_ALUSrc $end
$var wire 2 R IDEX_ALUOp_o [1:0] $end
$var wire 2 S IDEX_ALUOp [1:0] $end
$var wire 5 T EXMEM_RegisterRd_o [4:0] $end
$var wire 1 U EXMEM_RegWrite_o $end
$var wire 32 V EXMEM_RS2data_o [31:0] $end
$var wire 1 W EXMEM_MemWrite_o $end
$var wire 1 X EXMEM_MemToReg_o $end
$var wire 1 Y EXMEM_MemRead_o $end
$var wire 32 Z EXMEM_ALUres_o [31:0] $end
$var wire 32 [ Data_Memory_data_o [31:0] $end
$var wire 32 \ Branch_PC_o [31:0] $end
$var wire 1 ] And_rd1_rd2_branch_data_o $end
$var wire 32 ^ Add_PC_pc_o [31:0] $end
$var wire 32 _ ALU_ALUres [31:0] $end
$var wire 3 ` ALU_ALUctrl [2:0] $end
$var reg 1 a And_rd1_rd2_branch_data_o_reg $end
$var reg 1 b MEMWB_RegWrite_o_reg $end
$var reg 1 c NoOp_reg $end
$var reg 1 d PCWrite_reg $end
$var reg 1 e stall_reg $end
$scope module ALU $end
$var wire 32 f readData2 [31:0] $end
$var wire 32 g readData1 [31:0] $end
$var wire 3 h ALUctrl [2:0] $end
$var reg 32 i ALUres [31:0] $end
$upscope $end
$scope module ALU_Control $end
$var wire 7 j func7 [6:0] $end
$var wire 3 k func3 [2:0] $end
$var wire 2 l ALUOp [1:0] $end
$var reg 3 m ALUctrl [2:0] $end
$upscope $end
$scope module Add_PC $end
$var wire 32 n pc_i [31:0] $end
$var reg 32 o pc_o [31:0] $end
$upscope $end
$scope module And_rd1_rd2_branch $end
$var wire 1 p data2_i $end
$var wire 1 ] data_o $end
$var wire 1 B data1_i $end
$upscope $end
$scope module Branch_PC $end
$var wire 32 q src1 [31:0] $end
$var wire 32 r src2 [31:0] $end
$var wire 32 s AdderRes [31:0] $end
$upscope $end
$scope module Control $end
$var wire 1 c NoOp $end
$var wire 7 t ctrlCode [6:0] $end
$var reg 2 u ALUOp [1:0] $end
$var reg 1 Q ALUSrc $end
$var reg 1 B Branch_o $end
$var reg 1 O MemRead $end
$var reg 1 M MemToReg $end
$var reg 1 K MemWrite $end
$var reg 1 G RegWrite $end
$upscope $end
$scope module Data_Memory $end
$var wire 1 ! clk_i $end
$var wire 32 v data_o [31:0] $end
$var wire 32 w data_i [31:0] $end
$var wire 32 x addr_i [31:0] $end
$var wire 1 W MemWrite_i $end
$var wire 1 Y MemRead_i $end
$upscope $end
$scope module EXMEM_register $end
$var wire 32 y ALUres_i [31:0] $end
$var wire 1 ! clk_i $end
$var wire 1 " rst_i $end
$var wire 5 z RegisterRd_i [4:0] $end
$var wire 1 F RegWrite_i $end
$var wire 32 { RS2data_i [31:0] $end
$var wire 1 J MemWrite_i $end
$var wire 1 L MemToReg_i $end
$var wire 1 N MemRead_i $end
$var reg 32 | ALUres [31:0] $end
$var reg 32 } ALUres_o [31:0] $end
$var reg 1 ~ MemRead $end
$var reg 1 Y MemRead_o $end
$var reg 1 !" MemToReg $end
$var reg 1 X MemToReg_o $end
$var reg 1 "" MemWrite $end
$var reg 1 W MemWrite_o $end
$var reg 32 #" RS2data [31:0] $end
$var reg 32 $" RS2data_o [31:0] $end
$var reg 1 %" RegWrite $end
$var reg 1 U RegWrite_o $end
$var reg 5 &" RegisterRd [4:0] $end
$var reg 5 '" RegisterRd_o [4:0] $end
$upscope $end
$scope module ForwardingUnit $end
$var wire 5 (" EXMEM_Rd [4:0] $end
$var wire 1 U EXMEM_RegWrite $end
$var wire 1 9 MEMWB_RegWrite $end
$var wire 5 )" MEMWB_Rd [4:0] $end
$var wire 5 *" IDEX_Rs2 [4:0] $end
$var wire 5 +" IDEX_Rs1 [4:0] $end
$var reg 2 ," ForwardA [1:0] $end
$var reg 2 -" ForwardB [1:0] $end
$upscope $end
$scope module Hazard_Detection $end
$var wire 5 ." IFID_Rs1 [4:0] $end
$var wire 5 /" IFID_Rs2 [4:0] $end
$var wire 5 0" IDEX_Rd [4:0] $end
$var wire 1 N IDEX_MemRead $end
$var reg 1 0 NoOp $end
$var reg 1 / PCWrite $end
$var reg 1 ) Stall_o $end
$upscope $end
$scope module IDEX_register $end
$var wire 2 1" ALUOp_i [1:0] $end
$var wire 1 Q ALUSrc_i $end
$var wire 1 O MemRead_i $end
$var wire 1 M MemToReg_i $end
$var wire 1 K MemWrite_i $end
$var wire 1 G RegWrite_i $end
$var wire 5 2" RegisterR1_i [4:0] $end
$var wire 5 3" RegisterR2_i [4:0] $end
$var wire 5 4" RegisterRd_i [4:0] $end
$var wire 1 ! clk_i $end
$var wire 3 5" func3_i [2:0] $end
$var wire 7 6" func7_i [6:0] $end
$var wire 1 " rst_i $end
$var wire 32 7" extended_im_i [31:0] $end
$var wire 32 8" RS2data_i [31:0] $end
$var wire 32 9" RS1data_i [31:0] $end
$var reg 2 :" ALUOp [1:0] $end
$var reg 2 ;" ALUOp_o [1:0] $end
$var reg 1 <" ALUSrc $end
$var reg 1 P ALUSrc_o $end
$var reg 1 =" MemRead $end
$var reg 1 N MemRead_o $end
$var reg 1 >" MemToReg $end
$var reg 1 L MemToReg_o $end
$var reg 1 ?" MemWrite $end
$var reg 1 J MemWrite_o $end
$var reg 32 @" RS1data [31:0] $end
$var reg 32 A" RS1data_o [31:0] $end
$var reg 32 B" RS2data [31:0] $end
$var reg 32 C" RS2data_o [31:0] $end
$var reg 1 D" RegWrite $end
$var reg 1 F RegWrite_o $end
$var reg 5 E" RegisterR1 [4:0] $end
$var reg 5 F" RegisterR1_o [4:0] $end
$var reg 5 G" RegisterR2 [4:0] $end
$var reg 5 H" RegisterR2_o [4:0] $end
$var reg 5 I" RegisterRd [4:0] $end
$var reg 5 J" RegisterRd_o [4:0] $end
$var reg 32 K" extended_im [31:0] $end
$var reg 32 L" extended_im_o [31:0] $end
$var reg 3 M" func3 [2:0] $end
$var reg 3 N" func3_o [2:0] $end
$var reg 7 O" func7 [6:0] $end
$var reg 7 P" func7_o [6:0] $end
$upscope $end
$scope module IFID_register $end
$var wire 1 a IFID_flush_i $end
$var wire 1 e IFID_stall_i $end
$var wire 1 ! clk_i $end
$var wire 1 " rst_i $end
$var wire 32 Q" instruction_i [31:0] $end
$var wire 32 R" PC_i [31:0] $end
$var reg 32 S" PC [31:0] $end
$var reg 32 T" PC_o [31:0] $end
$var reg 32 U" instruction [31:0] $end
$var reg 32 V" instruction_o [31:0] $end
$upscope $end
$scope module Instruction_Memory $end
$var wire 32 W" instr_o [31:0] $end
$var wire 32 X" addr_i [31:0] $end
$upscope $end
$scope module MEMWB_register $end
$var wire 32 Y" ALUres_i [31:0] $end
$var wire 1 X MemToReg_i $end
$var wire 32 Z" ReadData_i [31:0] $end
$var wire 1 U RegWrite_i $end
$var wire 5 [" RegisterRd_i [4:0] $end
$var wire 1 ! clk_i $end
$var wire 1 " rst_i $end
$var reg 32 \" ALUres [31:0] $end
$var reg 32 ]" ALUres_o [31:0] $end
$var reg 1 ^" MemToReg $end
$var reg 1 ; MemToReg_o $end
$var reg 32 _" ReadData [31:0] $end
$var reg 32 `" ReadData_o [31:0] $end
$var reg 1 a" RegWrite $end
$var reg 1 9 RegWrite_o $end
$var reg 5 b" RegisterRd [4:0] $end
$var reg 5 c" RegisterRd_o [4:0] $end
$upscope $end
$scope module MUX3_RD1 $end
$var wire 32 d" data1_i [31:0] $end
$var wire 32 e" data3_i [31:0] $end
$var wire 2 f" signal [1:0] $end
$var wire 32 g" data2_i [31:0] $end
$var reg 32 h" data_o [31:0] $end
$upscope $end
$scope module MUX3_RD2 $end
$var wire 32 i" data1_i [31:0] $end
$var wire 32 j" data3_i [31:0] $end
$var wire 2 k" signal [1:0] $end
$var wire 32 l" data2_i [31:0] $end
$var reg 32 m" data_o [31:0] $end
$upscope $end
$scope module MUX_ALUSrc $end
$var wire 1 P ALUSrc $end
$var wire 32 n" im [31:0] $end
$var wire 32 o" readData1 [31:0] $end
$var wire 32 p" readData2 [31:0] $end
$upscope $end
$scope module MUX_PC $end
$var wire 1 a ALUSrc $end
$var wire 32 q" im [31:0] $end
$var wire 32 r" readData1 [31:0] $end
$var wire 32 s" readData2 [31:0] $end
$upscope $end
$scope module MUX_WB $end
$var wire 1 ; ALUSrc $end
$var wire 32 t" im [31:0] $end
$var wire 32 u" readData1 [31:0] $end
$var wire 32 v" readData2 [31:0] $end
$upscope $end
$scope module PC $end
$var wire 1 d PCWrite_i $end
$var wire 1 ! clk_i $end
$var wire 32 w" pc_i [31:0] $end
$var wire 1 " rst_i $end
$var reg 32 x" pc_o [31:0] $end
$upscope $end
$scope module Registers $end
$var wire 5 y" RDaddr_i [4:0] $end
$var wire 32 z" RDdata_i [31:0] $end
$var wire 5 {" RS1addr_i [4:0] $end
$var wire 5 |" RS2addr_i [4:0] $end
$var wire 1 b RegWrite_i $end
$var wire 1 ! clk_i $end
$var wire 1 " rst_i $end
$var wire 32 }" RS2data_o [31:0] $end
$var wire 32 ~" RS1data_o [31:0] $end
$var integer 32 !# i [31:0] $end
$upscope $end
$scope module Sign_Extend $end
$var wire 32 "# im [31:0] $end
$var reg 32 ## extended_im [31:0] $end
$upscope $end
$upscope $end
$upscope $end
$enddefinitions $end
#0
$dumpvars
bx ##
bx "#
bx !#
bx ~"
bx }"
bx |"
bx {"
bx z"
bx y"
bx x"
bx w"
bx v"
bx u"
bx t"
bx s"
bx r"
bx q"
bx p"
bx o"
bx n"
bx m"
bx l"
bx k"
bx j"
bx i"
bx h"
bx g"
bx f"
bx e"
bx d"
bx c"
bx b"
xa"
bx `"
bx _"
x^"
bx ]"
bx \"
bx ["
bx Z"
bx Y"
bx X"
bx W"
bx V"
bx U"
bx T"
bx S"
bx R"
bx Q"
bx P"
bx O"
bx N"
bx M"
bx L"
bx K"
bx J"
bx I"
bx H"
bx G"
bx F"
bx E"
xD"
bx C"
bx B"
bx A"
bx @"
x?"
x>"
x="
x<"
bx ;"
bx :"
bx 9"
bx 8"
bx 7"
bx 6"
bx 5"
bx 4"
bx 3"
bx 2"
b0 1"
bx 0"
bx /"
bx ."
bx -"
bx ,"
bx +"
bx *"
bx )"
bx ("
bx '"
bx &"
x%"
bx $"
bx #"
x""
x!"
x~
bx }
bx |
bx {
bx z
bx y
bx x
bx w
bx v
b0 u
bx t
bx s
bx r
bx0 q
xp
bx o
bx n
bx m
bx l
bx k
bx j
bx i
bx h
bx g
bx f
0e
1d
0c
0b
0a
bx `
bx _
bx ^
0]
bx \
bx [
bx Z
xY
xX
xW
bx V
xU
bx T
b0 S
bx R
0Q
xP
0O
xN
0M
xL
0K
xJ
bx I
bx H
0G
xF
bx E
bx D
bx C
0B
bx A
bx @
bx ?
bx >
bx =
bx <
x;
bx :
x9
bx 8
bx 7
bx 6
bx 5
bx 4
bx 3
bx 2
bx 1
x0
x/
bx .
bx -
bx ,
bx +
bx *
x)
0(
b0 '
b11 &
b100000 %
b0 $
b0 #
1"
0!
$end
#6
b100 2
b100 s"
b100 w"
b1100010000000100000110011 =
b1100010000000100000110011 Q"
b1100010000000100000110011 W"
b100 ^
b100 o
b100 r"
b0 *
b0 n
b0 R"
b0 X"
b0 x"
b100000 !#
0"
#12
1"
#25
b1000 2
b1000 s"
b1000 w"
b1100110000000100000110011 =
b1100110000000100000110011 Q"
b1100110000000100000110011 W"
b1000 ^
b1000 o
b1000 r"
0<"
b0 :"
0?"
0="
0>"
0D"
b1100010000000100000110011 U"
b0 S"
b100 *
b100 n
b100 R"
b100 X"
b100 x"
b1 #
1!
#50
0p
b11111111111111111111111111101000 -
b11111111111111111111111111101000 8"
b11111111111111111111111111101000 }"
b0 .
b0 9"
b0 ~"
1G
b10 S
b10 u
b10 1"
b10000 4"
b11000 3"
b10000 2"
b0 5"
b0 6"
b11000 /"
b10000 ."
b11000 |"
b10000 {"
b110011 t
b111 `
b111 h
b111 m
00
1/
0)
b1100010000000100000110011 +
b1100010000000100000110011 V"
b1100010000000100000110011 "#
b0 >
b0 r
b0 T"
0P
b0 R
b0 l
b0 ;"
0J
0N
0L
0F
0!
#75
b1100 2
b1100 s"
b1100 w"
b1101010000000100000110011 =
b1101010000000100000110011 Q"
b1101010000000100000110011 W"
b1100 ^
b1100 o
b1100 r"
0""
0~
0!"
0%"
b10000 I"
b11000 G"
b10000 E"
b0 M"
b0 O"
b11111111111111111111111111101000 B"
b0 @"
b10 :"
1D"
b1100110000000100000110011 U"
b100 S"
b1000 *
b1000 n
b1000 R"
b1000 X"
b1000 x"
b10 #
1!
#100
b11111111111111111111111111101000 _
b11111111111111111111111111101000 i
b11111111111111111111111111101000 y
b11111111111111111111111111100111 -
b11111111111111111111111111100111 8"
b11111111111111111111111111100111 }"
b11111111111111111111111111101000 3
b11111111111111111111111111101000 f
b11111111111111111111111111101000 p"
b11001 3"
b11001 /"
b11001 |"
b11111111111111111111111111101000 5
b11111111111111111111111111101000 {
b11111111111111111111111111101000 m"
b11111111111111111111111111101000 o"
b0 7
b0 g
b0 h"
b0 `
b0 h
b0 m
b0 [
b0 v
b0 Z"
b0 4
b0 -"
b0 k"
b0 6
b0 ,"
b0 f"
b1100110000000100000110011 +
b1100110000000100000110011 V"
b1100110000000100000110011 "#
b100 >
b100 r
b100 T"
b10000 C
b10000 z
b10000 0"
b10000 J"
b11000 D
b11000 *"
b11000 H"
b10000 E
b10000 +"
b10000 F"
b0 @
b0 k
b0 N"
b0 ?
b0 j
b0 P"
b11111111111111111111111111101000 H
b11111111111111111111111111101000 C"
b11111111111111111111111111101000 i"
b0 I
b0 A"
b0 d"
b10 R
b10 l
b10 ;"
1F
0W
0Y
0X
0U
0!
#125
b10000 2
b10000 s"
b10000 w"
b1110010000000100000110011 =
b1110010000000100000110011 Q"
b1110010000000100000110011 W"
b10000 ^
b10000 o
b10000 r"
b0 _"
0^"
0a"
b10000 &"
b11111111111111111111111111101000 #"
b11111111111111111111111111101000 |
1%"
b11001 G"
b11111111111111111111111111100111 B"
b1101010000000100000110011 U"
b1000 S"
b1100 *
b1100 n
b1100 R"
b1100 X"
b1100 x"
b11 #
1!
#150
b11111111111111111111111111100110 -
b11111111111111111111111111100110 8"
b11111111111111111111111111100110 }"
b11111111111111111111111111001111 _
b11111111111111111111111111001111 i
b11111111111111111111111111001111 y
b11111111111111111111111111100111 3
b11111111111111111111111111100111 f
b11111111111111111111111111100111 p"
b11010 3"
b11010 /"
b11010 |"
b11111111111111111111111111101000 7
b11111111111111111111111111101000 g
b11111111111111111111111111101000 h"
b11111111111111111111111111100111 5
b11111111111111111111111111100111 {
b11111111111111111111111111100111 m"
b11111111111111111111111111100111 o"
b10 6
b10 ,"
b10 f"
b1101010000000100000110011 +
b1101010000000100000110011 V"
b1101010000000100000110011 "#
b1000 >
b1000 r
b1000 T"
b11001 D
b11001 *"
b11001 H"
b11111111111111111111111111100111 H
b11111111111111111111111111100111 C"
b11111111111111111111111111100111 i"
b10000 T
b10000 '"
b10000 ("
b10000 ["
b11111111111111111111111111101000 V
b11111111111111111111111111101000 w
b11111111111111111111111111101000 $"
b11111111111111111111111111101000 Z
b11111111111111111111111111101000 x
b11111111111111111111111111101000 }
b11111111111111111111111111101000 Y"
b11111111111111111111111111101000 e"
b11111111111111111111111111101000 j"
1U
b0 :
b0 `"
b0 t"
0;
09
0!
#175
b10100 2
b10100 s"
b10100 w"
b1000000000010110000100011 =
b1000000000010110000100011 Q"
b1000000000010110000100011 W"
b10100 ^
b10100 o
b10100 r"
b10000 b"
b11111111111111111111111111101000 \"
1a"
b11111111111111111111111111100111 #"
b11111111111111111111111111001111 |
b11010 G"
b11111111111111111111111111100110 B"
b1110010000000100000110011 U"
b1100 S"
b10000 *
b10000 n
b10000 R"
b10000 X"
b10000 x"
b100 #
1!
#200
b11111111111111111111111111101000 .
b11111111111111111111111111101000 9"
b11111111111111111111111111101000 ~"
1b
b111000 -
b111000 8"
b111000 }"
b11111111111111111111111110110101 _
b11111111111111111111111110110101 i
b11111111111111111111111110110101 y
b11111111111111111111111111100110 3
b11111111111111111111111111100110 f
b11111111111111111111111111100110 p"
b11100 3"
b11100 /"
b11100 |"
b11111111111111111111111111001111 7
b11111111111111111111111111001111 g
b11111111111111111111111111001111 h"
b11111111111111111111111111100110 5
b11111111111111111111111111100110 {
b11111111111111111111111111100110 m"
b11111111111111111111111111100110 o"
b11111111111111111111111111101000 1
b11111111111111111111111111101000 g"
b11111111111111111111111111101000 l"
b11111111111111111111111111101000 v"
b11111111111111111111111111101000 z"
b10 6
b10 ,"
b10 f"
b1110010000000100000110011 +
b1110010000000100000110011 V"
b1110010000000100000110011 "#
b1100 >
b1100 r
b1100 T"
b11010 D
b11010 *"
b11010 H"
b11111111111111111111111111100110 H
b11111111111111111111111111100110 C"
b11111111111111111111111111100110 i"
b11111111111111111111111111100111 V
b11111111111111111111111111100111 w
b11111111111111111111111111100111 $"
b11111111111111111111111111001111 Z
b11111111111111111111111111001111 x
b11111111111111111111111111001111 }
b11111111111111111111111111001111 Y"
b11111111111111111111111111001111 e"
b11111111111111111111111111001111 j"
b10000 8
b10000 )"
b10000 c"
b10000 y"
b11111111111111111111111111101000 <
b11111111111111111111111111101000 ]"
b11111111111111111111111111101000 u"
19
0!
#225
b11000 2
b11000 s"
b11000 w"
b1000001111011111000000010110011 =
b1000001111011111000000010110011 Q"
b1000001111011111000000010110011 W"
b11000 ^
b11000 o
b11000 r"
b11111111111111111111111111001111 \"
b11111111111111111111111111100110 #"
b11111111111111111111111110110101 |
b11100 G"
b111000 B"
b11111111111111111111111111101000 @"
b1000000000010110000100011 U"
b10000 S"
b10100 *
b10100 n
b10100 R"
b10100 X"
b10100 x"
b101 #
1!
#250
b1000000 \
b1000000 s
b1000000 q"
b110000 q
b11111111111111111111111111001111 -
b11111111111111111111111111001111 8"
b11111111111111111111111111001111 }"
1K
0G
b0 S
b0 u
b0 1"
1Q
b11111111111111111111111111101101 _
b11111111111111111111111111101101 i
b11111111111111111111111111101101 y
b111000 3
b111000 f
b111000 p"
b0 .
b0 9"
b0 ~"
b11000 ,
b11000 7"
b11000 ##
b11000 4"
b10000 3"
b0 2"
b10 5"
b10000 /"
b0 ."
b10000 |"
b0 {"
b100011 t
b10 6
b10 ,"
b10 f"
b11111111111111111111111110110101 7
b11111111111111111111111110110101 g
b11111111111111111111111110110101 h"
b111000 5
b111000 {
b111000 m"
b111000 o"
b11111111111111111111111111001111 1
b11111111111111111111111111001111 g"
b11111111111111111111111111001111 l"
b11111111111111111111111111001111 v"
b11111111111111111111111111001111 z"
b1000000000010110000100011 +
b1000000000010110000100011 V"
b1000000000010110000100011 "#
b10000 >
b10000 r
b10000 T"
b11100 D
b11100 *"
b11100 H"
b111000 H
b111000 C"
b111000 i"
b11111111111111111111111111101000 I
b11111111111111111111111111101000 A"
b11111111111111111111111111101000 d"
b11111111111111111111111111100110 V
b11111111111111111111111111100110 w
b11111111111111111111111111100110 $"
b11111111111111111111111110110101 Z
b11111111111111111111111110110101 x
b11111111111111111111111110110101 }
b11111111111111111111111110110101 Y"
b11111111111111111111111110110101 e"
b11111111111111111111111110110101 j"
b11111111111111111111111111001111 <
b11111111111111111111111111001111 ]"
b11111111111111111111111111001111 u"
0!
#275
b11100 2
b11100 s"
b11100 w"
b1111000001000000100110011 =
b1111000001000000100110011 Q"
b1111000001000000100110011 W"
b11100 ^
b11100 o
b11100 r"
b11111111111111111111111110110101 \"
b111000 #"
b11111111111111111111111111101101 |
b11000 I"
b10000 G"
b0 E"
b10 M"
b11000 K"
b11111111111111111111111111001111 B"
b0 @"
1<"
b0 :"
1?"
0D"
b1000001111011111000000010110011 U"
b10100 S"
b11000 *
b11000 n
b11000 R"
b11000 X"
b11000 x"
b110 #
1!
#300
b111110 .
b111110 9"
b111110 ~"
0K
1G
b10 S
b10 u
b10 1"
0Q
b11000 _
b11000 i
b11000 y
b111100 -
b111100 8"
b111100 }"
b1 4"
b11110 3"
b11111 2"
b0 5"
b100000 6"
b11110 /"
b11111 ."
b11110 |"
b11111 {"
b110011 t
b10 4
b10 -"
b10 k"
b0 6
b0 ,"
b0 f"
b11000 3
b11000 f
b11000 p"
b111 `
b111 h
b111 m
b0 7
b0 g
b0 h"
b11111111111111111111111111101101 5
b11111111111111111111111111101101 {
b11111111111111111111111111101101 m"
b11111111111111111111111111101101 o"
b11111111111111111111111110110101 1
b11111111111111111111111110110101 g"
b11111111111111111111111110110101 l"
b11111111111111111111111110110101 v"
b11111111111111111111111110110101 z"
b1000001111011111000000010110011 +
b1000001111011111000000010110011 V"
b1000001111011111000000010110011 "#
b1000100 \
b1000100 s
b1000100 q"
b10100 >
b10100 r
b10100 T"
b11000 C
b11000 z
b11000 0"
b11000 J"
b10000 D
b10000 *"
b10000 H"
b0 E
b0 +"
b0 F"
b10 @
b10 k
b10 N"
b11000 A
b11000 L"
b11000 n"
b11111111111111111111111111001111 H
b11111111111111111111111111001111 C"
b11111111111111111111111111001111 i"
b0 I
b0 A"
b0 d"
1P
b0 R
b0 l
b0 ;"
1J
0F
b111000 V
b111000 w
b111000 $"
b11111111111111111111111111101101 Z
b11111111111111111111111111101101 x
b11111111111111111111111111101101 }
b11111111111111111111111111101101 Y"
b11111111111111111111111111101101 e"
b11111111111111111111111111101101 j"
b11111111111111111111111110110101 <
b11111111111111111111111110110101 ]"
b11111111111111111111111110110101 u"
0!
#325
b100000 2
b100000 s"
b100000 w"
b1000000001000010101000110010011 =
b1000000001000010101000110010011 Q"
b1000000001000010101000110010011 W"
b100000 ^
b100000 o
b100000 r"
b11111111111111111111111111101101 \"
b11000 &"
b11111111111111111111111111101101 #"
b11000 |
1""
0%"
b1 I"
b11110 G"
b11111 E"
b0 M"
b100000 O"
b111100 B"
b111110 @"
0<"
b10 :"
0?"
1D"
b1111000001000000100110011 U"
b11000 S"
b11100 *
b11100 n
b11100 R"
b11100 X"
b11100 x"
b111 #
1!
#350
b0 .
b0 9"
b0 ~"
b10 _
b10 i
b10 y
b10 4"
b1 2"
b0 6"
b1 ."
b1 {"
b111100 3
b111100 f
b111100 p"
b1 `
b1 h
b1 m
b111110 7
b111110 g
b111110 h"
b111100 5
b111100 {
b111100 m"
b111100 o"
b0 4
b0 -"
b0 k"
b11111111111111111111111111101101 1
b11111111111111111111111111101101 g"
b11111111111111111111111111101101 l"
b11111111111111111111111111101101 v"
b11111111111111111111111111101101 z"
b1111000001000000100110011 +
b1111000001000000100110011 V"
b1111000001000000100110011 "#
b1001000 \
b1001000 s
b1001000 q"
b11000 >
b11000 r
b11000 T"
b1 C
b1 z
b1 0"
b1 J"
b11110 D
b11110 *"
b11110 H"
b11111 E
b11111 +"
b11111 F"
b0 @
b0 k
b0 N"
b100000 ?
b100000 j
b100000 P"
b111100 H
b111100 C"
b111100 i"
b111110 I
b111110 A"
b111110 d"
0P
b10 R
b10 l
b10 ;"
0J
1F
b11000 T
b11000 '"
b11000 ("
b11000 ["
b11111111111111111111111111101101 V
b11111111111111111111111111101101 w
b11111111111111111111111111101101 $"
b11000 Z
b11000 x
b11000 }
b11000 Y"
b11000 e"
b11000 j"
1W
0U
b11111111111111111111111111101101 <
b11111111111111111111111111101101 ]"
b11111111111111111111111111101101 u"
0!
#375
b100100 2
b100100 s"
b100100 w"
b1000000000011010010011 =
b1000000000011010010011 Q"
b1000000000011010010011 W"
b100100 ^
b100100 o
b100100 r"
b11000 b"
b11000 \"
0a"
b1 &"
b111100 #"
b10 |
0""
1%"
b10 I"
b1 E"
b0 O"
b0 @"
b1000000001000010101000110010011 U"
b11100 S"
b100000 *
b100000 n
b100000 R"
b100000 X"
b100000 x"
b1000 #
1!
#400
0b
1p
b100000000100 q
b0 -
b0 8"
b0 }"
b11 S
b11 u
b11 1"
1Q
b111110 _
b111110 i
b111110 y
b10000000010 ,
b10000000010 7"
b10000000010 ##
b11 4"
b10 3"
b10 2"
b101 5"
b100000 6"
b10 /"
b10 ."
b10 |"
b10 {"
b10011 t
b0 `
b0 h
b0 m
b10 7
b10 g
b10 h"
b11000 1
b11000 g"
b11000 l"
b11000 v"
b11000 z"
b10 6
b10 ,"
b10 f"
b1000000001000010101000110010011 +
b1000000001000010101000110010011 V"
b1000000001000010101000110010011 "#
b100000100000 \
b100000100000 s
b100000100000 q"
b11100 >
b11100 r
b11100 T"
b10 C
b10 z
b10 0"
b10 J"
b1 E
b1 +"
b1 F"
b0 ?
b0 j
b0 P"
b0 I
b0 A"
b0 d"
b1 T
b1 '"
b1 ("
b1 ["
b111100 V
b111100 w
b111100 $"
b10 Z
b10 x
b10 }
b10 Y"
b10 e"
b10 j"
0W
1U
b11000 8
b11000 )"
b11000 c"
b11000 y"
b11000 <
b11000 ]"
b11000 u"
09
0!
#425
b101000 2
b101000 s"
b101000 w"
b110111110001011110110011 =
b110111110001011110110011 Q"
b110111110001011110110011 W"
b101000 ^
b101000 o
b101000 r"
b1 b"
b10 \"
1a"
b10 &"
b111110 |
b11 I"
b10 G"
b10 E"
b101 M"
b100000 O"
b10000000010 K"
b0 B"
1<"
b11 :"
b1000000000011010010011 U"
b100000 S"
b100100 *
b100100 n
b100100 R"
b100100 X"
b100100 x"
b1001 #
1!
#450
1b
b100 q
b1111 _
b1111 i
b1111 y
b10 ,
b10 7"
b10 ##
b1101 4"
b0 2"
b0 5"
b0 6"
b0 ."
b0 {"
b10000000010 3
b10000000010 f
b10000000010 p"
b110 `
b110 h
b110 m
b111110 7
b111110 g
b111110 h"
b111110 5
b111110 {
b111110 m"
b111110 o"
b10 1
b10 g"
b10 l"
b10 v"
b10 z"
b10 4
b10 -"
b10 k"
b10 6
b10 ,"
b10 f"
b1000000000011010010011 +
b1000000000011010010011 V"
b1000000000011010010011 "#
b100100 \
b100100 s
b100100 q"
b100000 >
b100000 r
b100000 T"
b11 C
b11 z
b11 0"
b11 J"
b10 D
b10 *"
b10 H"
b10 E
b10 +"
b10 F"
b101 @
b101 k
b101 N"
b100000 ?
b100000 j
b100000 P"
b10000000010 A
b10000000010 L"
b10000000010 n"
b0 H
b0 C"
b0 i"
1P
b11 R
b11 l
b11 ;"
b10 T
b10 '"
b10 ("
b10 ["
b111110 Z
b111110 x
b111110 }
b111110 Y"
b111110 e"
b111110 j"
b1 8
b1 )"
b1 c"
b1 y"
b10 <
b10 ]"
b10 u"
19
0!
#475
b101100 2
b101100 s"
b101100 w"
b1100000010101000100011 =
b1100000010101000100011 Q"
b1100000010101000100011 W"
b101100 ^
b101100 o
b101100 r"
b10 b"
b111110 \"
b11 &"
b111110 #"
b1111 |
b1101 I"
b0 E"
b0 M"
b0 O"
b10 K"
b110111110001011110110011 U"
b100100 S"
b101000 *
b101000 n
b101000 R"
b101000 X"
b101000 x"
b1010 #
1!
