log/waveform_3.vcd
$date
	Thu Dec  7 09:31:54 2023
$end
$version
	Icarus Verilog
$end
$timescale
	1s
$end
$scope module TestBench $end
$var reg 1 ! Clk $end
$var reg 1 " Reset $end
$var integer 32 # counter [31:0] $end
$var integer 32 $ flush [31:0] $end
$var integer 32 % i [31:0] $end
$var integer 32 & outfile [31:0] $end
$var integer 32 ' stall [31:0] $end
$scope module CPU $end
$var wire 1 ( ID_FlushIF $end
$var wire 1 ! clk_i $end
$var wire 1 " rst_i $end
$var wire 1 ) stall $end
$var wire 32 * pc_o [31:0] $end
$var wire 32 + instr_o [31:0] $end
$var wire 32 , Sign_Extend_extended_im [31:0] $end
$var wire 32 - Register_RS2data_o [31:0] $end
$var wire 32 . Register_RS1data_o [31:0] $end
$var wire 1 / PCWrite $end
$var wire 1 0 NoOp $end
$var wire 32 1 MUX_WB_o [31:0] $end
$var wire 32 2 MUX_PC_o [31:0] $end
$var wire 32 3 MUX_ALUSrc_o [31:0] $end
$var wire 2 4 MUX3_RD2_signal [1:0] $end
$var wire 32 5 MUX3_RD2_data_o [31:0] $end
$var wire 2 6 MUX3_RD1_signal [1:0] $end
$var wire 32 7 MUX3_RD1_data_o [31:0] $end
$var wire 5 8 MEMWB_RegisterRd_o [4:0] $end
$var wire 1 9 MEMWB_RegWrite_o $end
$var wire 32 : MEMWB_ReadData_o [31:0] $end
$var wire 1 ; MEMWB_MemToReg_o $end
$var wire 32 < MEMWB_ALUres_o [31:0] $end
$var wire 32 = Instruction_Memory_instr_o [31:0] $end
$var wire 32 > IFID_PC_o [31:0] $end
$var wire 7 ? IDEX_func7_o [6:0] $end
$var wire 3 @ IDEX_func3_o [2:0] $end
$var wire 32 A IDEX_extended_im_o [31:0] $end
$var wire 1 B IDEX_branch $end
$var wire 5 C IDEX_RegisterRd_o [4:0] $end
$var wire 5 D IDEX_RegisterR2_o [4:0] $end
$var wire 5 E IDEX_RegisterR1_o [4:0] $end
$var wire 1 F IDEX_RegWrite_o $end
$var wire 1 G IDEX_RegWrite $end
$var wire 32 H IDEX_RS2data_o [31:0] $end
$var wire 32 I IDEX_RS1data_o [31:0] $end
$var wire 1 J IDEX_MemWrite_o $end
$var wire 1 K IDEX_MemWrite $end
$var wire 1 L IDEX_MemToReg_o $end
$var wire 1 M IDEX_MemToReg $end
$var wire 1 N IDEX_MemRead_o $end
$var wire 1 O IDEX_MemRead $end
$var wire 1 P IDEX_ALUSrc_o $end
$var wire 1 Q IDEX_ALUSrc $end
$var wire 2 R IDEX_ALUOp_o [1:0] $end
$var wire 2 S IDEX_ALUOp [1:0] $end
$var wire 5 T EXMEM_RegisterRd_o [4:0] $end
$var wire 1 U EXMEM_RegWrite_o $end
$var wire 32 V EXMEM_RS2data_o [31:0] $end
$var wire 1 W EXMEM_MemWrite_o $end
$var wire 1 X EXMEM_MemToReg_o $end
$var wire 1 Y EXMEM_MemRead_o $end
$var wire 32 Z EXMEM_ALUres_o [31:0] $end
$var wire 32 [ Data_Memory_data_o [31:0] $end
$var wire 32 \ Branch_PC_o [31:0] $end
$var wire 1 ] And_rd1_rd2_branch_data_o $end
$var wire 32 ^ Add_PC_pc_o [31:0] $end
$var wire 32 _ ALU_ALUres [31:0] $end
$var wire 3 ` ALU_ALUctrl [2:0] $end
$var reg 1 a And_rd1_rd2_branch_data_o_reg $end
$var reg 1 b MEMWB_RegWrite_o_reg $end
$var reg 1 c NoOp_reg $end
$var reg 1 d PCWrite_reg $end
$var reg 1 e stall_reg $end
$scope module ALU $end
$var wire 32 f readData2 [31:0] $end
$var wire 32 g readData1 [31:0] $end
$var wire 3 h ALUctrl [2:0] $end
$var reg 32 i ALUres [31:0] $end
$upscope $end
$scope module ALU_Control $end
$var wire 7 j func7 [6:0] $end
$var wire 3 k func3 [2:0] $end
$var wire 2 l ALUOp [1:0] $end
$var reg 3 m ALUctrl [2:0] $end
$upscope $end
$scope module Add_PC $end
$var wire 32 n pc_i [31:0] $end
$var reg 32 o pc_o [31:0] $end
$upscope $end
$scope module And_rd1_rd2_branch $end
$var wire 1 p data2_i $end
$var wire 1 ] data_o $end
$var wire 1 B data1_i $end
$upscope $end
$scope module Branch_PC $end
$var wire 32 q src1 [31:0] $end
$var wire 32 r src2 [31:0] $end
$var wire 32 s AdderRes [31:0] $end
$upscope $end
$scope module Control $end
$var wire 1 c NoOp $end
$var wire 7 t ctrlCode [6:0] $end
$var reg 2 u ALUOp [1:0] $end
$var reg 1 Q ALUSrc $end
$var reg 1 B Branch_o $end
$var reg 1 O MemRead $end
$var reg 1 M MemToReg $end
$var reg 1 K MemWrite $end
$var reg 1 G RegWrite $end
$upscope $end
$scope module Data_Memory $end
$var wire 1 ! clk_i $end
$var wire 32 v data_o [31:0] $end
$var wire 32 w data_i [31:0] $end
$var wire 32 x addr_i [31:0] $end
$var wire 1 W MemWrite_i $end
$var wire 1 Y MemRead_i $end
$upscope $end
$scope module EXMEM_register $end
$var wire 32 y ALUres_i [31:0] $end
$var wire 1 ! clk_i $end
$var wire 1 " rst_i $end
$var wire 5 z RegisterRd_i [4:0] $end
$var wire 1 F RegWrite_i $end
$var wire 32 { RS2data_i [31:0] $end
$var wire 1 J MemWrite_i $end
$var wire 1 L MemToReg_i $end
$var wire 1 N MemRead_i $end
$var reg 32 | ALUres [31:0] $end
$var reg 32 } ALUres_o [31:0] $end
$var reg 1 ~ MemRead $end
$var reg 1 Y MemRead_o $end
$var reg 1 !" MemToReg $end
$var reg 1 X MemToReg_o $end
$var reg 1 "" MemWrite $end
$var reg 1 W MemWrite_o $end
$var reg 32 #" RS2data [31:0] $end
$var reg 32 $" RS2data_o [31:0] $end
$var reg 1 %" RegWrite $end
$var reg 1 U RegWrite_o $end
$var reg 5 &" RegisterRd [4:0] $end
$var reg 5 '" RegisterRd_o [4:0] $end
$upscope $end
$scope module ForwardingUnit $end
$var wire 5 (" EXMEM_Rd [4:0] $end
$var wire 1 U EXMEM_RegWrite $end
$var wire 1 9 MEMWB_RegWrite $end
$var wire 5 )" MEMWB_Rd [4:0] $end
$var wire 5 *" IDEX_Rs2 [4:0] $end
$var wire 5 +" IDEX_Rs1 [4:0] $end
$var reg 2 ," ForwardA [1:0] $end
$var reg 2 -" ForwardB [1:0] $end
$upscope $end
$scope module Hazard_Detection $end
$var wire 5 ." IFID_Rs1 [4:0] $end
$var wire 5 /" IFID_Rs2 [4:0] $end
$var wire 5 0" IDEX_Rd [4:0] $end
$var wire 1 N IDEX_MemRead $end
$var reg 1 0 NoOp $end
$var reg 1 / PCWrite $end
$var reg 1 ) Stall_o $end
$upscope $end
$scope module IDEX_register $end
$var wire 2 1" ALUOp_i [1:0] $end
$var wire 1 Q ALUSrc_i $end
$var wire 1 O MemRead_i $end
$var wire 1 M MemToReg_i $end
$var wire 1 K MemWrite_i $end
$var wire 1 G RegWrite_i $end
$var wire 5 2" RegisterR1_i [4:0] $end
$var wire 5 3" RegisterR2_i [4:0] $end
$var wire 5 4" RegisterRd_i [4:0] $end
$var wire 1 ! clk_i $end
$var wire 3 5" func3_i [2:0] $end
$var wire 7 6" func7_i [6:0] $end
$var wire 1 " rst_i $end
$var wire 32 7" extended_im_i [31:0] $end
$var wire 32 8" RS2data_i [31:0] $end
$var wire 32 9" RS1data_i [31:0] $end
$var reg 2 :" ALUOp [1:0] $end
$var reg 2 ;" ALUOp_o [1:0] $end
$var reg 1 <" ALUSrc $end
$var reg 1 P ALUSrc_o $end
$var reg 1 =" MemRead $end
$var reg 1 N MemRead_o $end
$var reg 1 >" MemToReg $end
$var reg 1 L MemToReg_o $end
$var reg 1 ?" MemWrite $end
$var reg 1 J MemWrite_o $end
$var reg 32 @" RS1data [31:0] $end
$var reg 32 A" RS1data_o [31:0] $end
$var reg 32 B" RS2data [31:0] $end
$var reg 32 C" RS2data_o [31:0] $end
$var reg 1 D" RegWrite $end
$var reg 1 F RegWrite_o $end
$var reg 5 E" RegisterR1 [4:0] $end
$var reg 5 F" RegisterR1_o [4:0] $end
$var reg 5 G" RegisterR2 [4:0] $end
$var reg 5 H" RegisterR2_o [4:0] $end
$var reg 5 I" RegisterRd [4:0] $end
$var reg 5 J" RegisterRd_o [4:0] $end
$var reg 32 K" extended_im [31:0] $end
$var reg 32 L" extended_im_o [31:0] $end
$var reg 3 M" func3 [2:0] $end
$var reg 3 N" func3_o [2:0] $end
$var reg 7 O" func7 [6:0] $end
$var reg 7 P" func7_o [6:0] $end
$upscope $end
$scope module IFID_register $end
$var wire 1 a IFID_flush_i $end
$var wire 1 e IFID_stall_i $end
$var wire 1 ! clk_i $end
$var wire 1 " rst_i $end
$var wire 32 Q" instruction_i [31:0] $end
$var wire 32 R" PC_i [31:0] $end
$var reg 32 S" PC [31:0] $end
$var reg 32 T" PC_o [31:0] $end
$var reg 32 U" instruction [31:0] $end
$var reg 32 V" instruction_o [31:0] $end
$upscope $end
$scope module Instruction_Memory $end
$var wire 32 W" instr_o [31:0] $end
$var wire 32 X" addr_i [31:0] $end
$upscope $end
$scope module MEMWB_register $end
$var wire 32 Y" ALUres_i [31:0] $end
$var wire 1 X MemToReg_i $end
$var wire 32 Z" ReadData_i [31:0] $end
$var wire 1 U RegWrite_i $end
$var wire 5 [" RegisterRd_i [4:0] $end
$var wire 1 ! clk_i $end
$var wire 1 " rst_i $end
$var reg 32 \" ALUres [31:0] $end
$var reg 32 ]" ALUres_o [31:0] $end
$var reg 1 ^" MemToReg $end
$var reg 1 ; MemToReg_o $end
$var reg 32 _" ReadData [31:0] $end
$var reg 32 `" ReadData_o [31:0] $end
$var reg 1 a" RegWrite $end
$var reg 1 9 RegWrite_o $end
$var reg 5 b" RegisterRd [4:0] $end
$var reg 5 c" RegisterRd_o [4:0] $end
$upscope $end
$scope module MUX3_RD1 $end
$var wire 32 d" data1_i [31:0] $end
$var wire 32 e" data3_i [31:0] $end
$var wire 2 f" signal [1:0] $end
$var wire 32 g" data2_i [31:0] $end
$var reg 32 h" data_o [31:0] $end
$upscope $end
$scope module MUX3_RD2 $end
$var wire 32 i" data1_i [31:0] $end
$var wire 32 j" data3_i [31:0] $end
$var wire 2 k" signal [1:0] $end
$var wire 32 l" data2_i [31:0] $end
$var reg 32 m" data_o [31:0] $end
$upscope $end
$scope module MUX_ALUSrc $end
$var wire 1 P ALUSrc $end
$var wire 32 n" im [31:0] $end
$var wire 32 o" readData1 [31:0] $end
$var wire 32 p" readData2 [31:0] $end
$upscope $end
$scope module MUX_PC $end
$var wire 1 a ALUSrc $end
$var wire 32 q" im [31:0] $end
$var wire 32 r" readData1 [31:0] $end
$var wire 32 s" readData2 [31:0] $end
$upscope $end
$scope module MUX_WB $end
$var wire 1 ; ALUSrc $end
$var wire 32 t" im [31:0] $end
$var wire 32 u" readData1 [31:0] $end
$var wire 32 v" readData2 [31:0] $end
$upscope $end
$scope module PC $end
$var wire 1 d PCWrite_i $end
$var wire 1 ! clk_i $end
$var wire 32 w" pc_i [31:0] $end
$var wire 1 " rst_i $end
$var reg 32 x" pc_o [31:0] $end
$upscope $end
$scope module Registers $end
$var wire 5 y" RDaddr_i [4:0] $end
$var wire 32 z" RDdata_i [31:0] $end
$var wire 5 {" RS1addr_i [4:0] $end
$var wire 5 |" RS2addr_i [4:0] $end
$var wire 1 b RegWrite_i $end
$var wire 1 ! clk_i $end
$var wire 1 " rst_i $end
$var wire 32 }" RS2data_o [31:0] $end
$var wire 32 ~" RS1data_o [31:0] $end
$var integer 32 !# i [31:0] $end
$upscope $end
$scope module Sign_Extend $end
$var wire 32 "# im [31:0] $end
$var reg 32 ## extended_im [31:0] $end
$upscope $end
$upscope $end
$upscope $end
$enddefinitions $end
#0
$dumpvars
bx ##
bx "#
bx !#
bx ~"
bx }"
bx |"
bx {"
bx z"
bx y"
bx x"
bx w"
bx v"
bx u"
bx t"
bx s"
bx r"
bx q"
bx p"
bx o"
bx n"
bx m"
bx l"
bx k"
bx j"
bx i"
bx h"
bx g"
bx f"
bx e"
bx d"
bx c"
bx b"
xa"
bx `"
bx _"
x^"
bx ]"
bx \"
bx ["
bx Z"
bx Y"
bx X"
bx W"
bx V"
bx U"
bx T"
bx S"
bx R"
bx Q"
bx P"
bx O"
bx N"
bx M"
bx L"
bx K"
bx J"
bx I"
bx H"
bx G"
bx F"
bx E"
xD"
bx C"
bx B"
bx A"
bx @"
x?"
x>"
x="
x<"
bx ;"
bx :"
bx 9"
bx 8"
bx 7"
bx 6"
bx 5"
bx 4"
bx 3"
bx 2"
b0 1"
bx 0"
bx /"
bx ."
bx -"
bx ,"
bx +"
bx *"
bx )"
bx ("
bx '"
bx &"
x%"
bx $"
bx #"
x""
x!"
x~
bx }
bx |
bx {
bx z
bx y
bx x
bx w
bx v
b0 u
bx t
bx s
bx r
bx0 q
xp
bx o
bx n
bx m
bx l
bx k
bx j
bx i
bx h
bx g
bx f
0e
1d
0c
0b
0a
bx `
bx _
bx ^
0]
bx \
bx [
bx Z
xY
xX
xW
bx V
xU
bx T
b0 S
bx R
0Q
xP
0O
xN
0M
xL
0K
xJ
bx I
bx H
0G
xF
bx E
bx D
bx C
0B
bx A
bx @
bx ?
bx >
bx =
bx <
x;
bx :
x9
bx 8
bx 7
bx 6
bx 5
bx 4
bx 3
bx 2
bx 1
x0
x/
bx .
bx -
bx ,
bx +
bx *
x)
0(
b0 '
b11 &
b100000 %
b0 $
b0 #
1"
0!
$end
#6
b100 2
b100 s"
b100 w"
b10010000000011 =
b10010000000011 Q"
b10010000000011 W"
b100 ^
b100 o
b100 r"
b0 *
b0 n
b0 R"
b0 X"
b0 x"
b100000 !#
0"
#12
1"
#25
b1000 2
b1000 s"
b1000 w"
b100001000000010010110011 =
b100001000000010010110011 Q"
b100001000000010010110011 W"
b1000 ^
b1000 o
b1000 r"
0<"
b0 :"
0?"
0="
0>"
0D"
b10010000000011 U"
b0 S"
b100 *
b100 n
b100 R"
b100 X"
b100 x"
b1 #
1!
#50
1p
b0 \
b0 s
b0 q"
b0 q
b0 -
b0 8"
b0 }"
b0 .
b0 9"
b0 ~"
1M
1O
1G
1Q
b0 ,
b0 7"
b0 ##
b1000 4"
b0 3"
b0 2"
b10 5"
b0 6"
b0 /"
b0 ."
b0 |"
b0 {"
b11 t
b111 `
b111 h
b111 m
00
1/
0)
b10010000000011 +
b10010000000011 V"
b10010000000011 "#
b0 >
b0 r
b0 T"
0P
b0 R
b0 l
b0 ;"
0J
0N
0L
0F
0!
#75
b1100 2
b1100 s"
b1100 w"
b10000000010010100000011 =
b10000000010010100000011 Q"
b10000000010010100000011 W"
b1100 ^
b1100 o
b1100 r"
0""
0~
0!"
0%"
b1000 I"
b0 G"
b0 E"
b10 M"
b0 O"
b0 K"
b0 B"
b0 @"
1<"
1="
1>"
1D"
b100001000000010010110011 U"
b100 S"
b1000 *
b1000 n
b1000 R"
b1000 X"
b1000 x"
b10 #
1!
#100
0G
1c
0d
1e
10
0/
1)
0M
0O
b0 S
b0 u
b0 1"
0Q
b0 _
b0 i
b0 y
b1001 4"
b1000 3"
b1000 2"
b0 5"
b1000 /"
b1000 ."
b1000 |"
b1000 {"
b110011 t
b0 5
b0 {
b0 m"
b0 o"
b0 7
b0 g
b0 h"
b0 3
b0 f
b0 p"
b0 [
b0 v
b0 Z"
b0 4
b0 -"
b0 k"
b0 6
b0 ,"
b0 f"
b100001000000010010110011 +
b100001000000010010110011 V"
b100001000000010010110011 "#
b100 \
b100 s
b100 q"
b100 >
b100 r
b100 T"
b1000 C
b1000 z
b1000 0"
b1000 J"
b0 D
b0 *"
b0 H"
b0 E
b0 +"
b0 F"
b10 @
b10 k
b10 N"
b0 ?
b0 j
b0 P"
b0 A
b0 L"
b0 n"
b0 H
b0 C"
b0 i"
b0 I
b0 A"
b0 d"
1P
1N
1L
1F
0W
0Y
0X
0U
0!
#125
b0 _"
0^"
0a"
b1000 &"
b0 #"
b0 |
1~
1!"
1%"
b1001 I"
b1000 G"
b1000 E"
b0 M"
0<"
0="
0>"
0D"
b11 #
b1 '
1!
#150
1G
b10 S
b10 u
b10 1"
0c
1d
0e
00
1/
0)
b101 [
b101 v
b101 Z"
b10 4
b10 -"
b10 k"
b10 6
b10 ,"
b10 f"
b1001 C
b1001 z
b1001 0"
b1001 J"
b1000 D
b1000 *"
b1000 H"
b1000 E
b1000 +"
b1000 F"
b0 @
b0 k
b0 N"
0P
0N
0L
0F
b1000 T
b1000 '"
b1000 ("
b1000 ["
b0 V
b0 w
b0 $"
b0 Z
b0 x
b0 }
b0 Y"
b0 e"
b0 j"
1Y
1X
1U
b0 :
b0 `"
b0 t"
0;
09
0!
#175
b10000 2
b10000 s"
b10000 w"
b101001010000010110110011 =
b101001010000010110110011 Q"
b101001010000010110110011 W"
b10000 ^
b10000 o
b10000 r"
b1000 b"
b101 _"
b0 \"
1^"
1a"
b1001 &"
0~
0!"
0%"
b10 :"
1D"
b10000000010010100000011 U"
b1000 S"
b1100 *
b1100 n
b1100 R"
b1100 X"
b1100 x"
b100 #
1!
#200
1b
b101 3
b101 f
b101 p"
b1000 q
1M
1O
b0 S
b0 u
b0 1"
1Q
b1010 _
b1010 i
b1010 y
b101 5
b101 {
b101 m"
b101 o"
b101 7
b101 g
b101 h"
b100 ,
b100 7"
b100 ##
b1010 4"
b100 3"
b0 2"
b10 5"
b100 /"
b0 ."
b100 |"
b0 {"
b11 t
b0 `
b0 h
b0 m
b0 [
b0 v
b0 Z"
b101 1
b101 g"
b101 l"
b101 v"
b101 z"
b1 4
b1 -"
b1 k"
b1 6
b1 ,"
b1 f"
b10000000010010100000011 +
b10000000010010100000011 V"
b10000000010010100000011 "#
b10000 \
b10000 s
b10000 q"
b1000 >
b1000 r
b1000 T"
b10 R
b10 l
b10 ;"
1F
b1001 T
b1001 '"
b1001 ("
b1001 ["
0Y
0X
0U
b1000 8
b1000 )"
b1000 c"
b1000 y"
b101 :
b101 `"
b101 t"
b0 <
b0 ]"
b0 u"
1;
19
0!
#225
b10100 2
b10100 s"
b10100 w"
b100000000010011000000011 =
b100000000010011000000011 Q"
b100000000010011000000011 W"
b10100 ^
b10100 o
b10100 r"
b1001 b"
b0 _"
0^"
0a"
b101 #"
b1010 |
1%"
b1010 I"
b100 G"
b0 E"
b10 M"
b100 K"
1<"
b0 :"
1="
1>"
b101001010000010110110011 U"
b1100 S"
b10000 *
b10000 n
b10000 R"
b10000 X"
b10000 x"
b101 #
1!
#250
0G
1c
0d
1e
0b
10
0/
1)
0M
0O
b0 S
b0 u
b0 1"
0Q
b100 _
b100 i
b100 y
b1011 4"
b1010 3"
b1010 2"
b0 5"
b1010 /"
b1010 ."
b1010 |"
b1010 {"
b110011 t
b100 3
b100 f
b100 p"
b111 `
b111 h
b111 m
b0 7
b0 g
b0 h"
b0 5
b0 {
b0 m"
b0 o"
b0 1
b0 g"
b0 l"
b0 v"
b0 z"
b0 4
b0 -"
b0 k"
b0 6
b0 ,"
b0 f"
b101001010000010110110011 +
b101001010000010110110011 V"
b101001010000010110110011 "#
b10100 \
b10100 s
b10100 q"
b1100 >
b1100 r
b1100 T"
b1010 C
b1010 z
b1010 0"
b1010 J"
b100 D
b100 *"
b100 H"
b0 E
b0 +"
b0 F"
b10 @
b10 k
b10 N"
b100 A
b100 L"
b100 n"
1P
b0 R
b0 l
b0 ;"
1N
1L
b101 V
b101 w
b101 $"
b1010 Z
b1010 x
b1010 }
b1010 Y"
b1010 e"
b1010 j"
1U
b1001 8
b1001 )"
b1001 c"
b1001 y"
b0 :
b0 `"
b0 t"
0;
09
0!
#275
b1010 \"
1a"
b1010 &"
b0 #"
b100 |
1~
1!"
b1011 I"
b1010 G"
b1010 E"
b0 M"
0<"
0="
0>"
0D"
b110 #
b10 '
1!
#300
1G
b10 S
b10 u
b10 1"
0c
1d
0e
1b
b1000 _
b1000 i
b1000 y
00
1/
0)
b100 7
b100 g
b100 h"
b100 5
b100 {
b100 m"
b100 o"
b110 [
b110 v
b110 Z"
b1010 1
b1010 g"
b1010 l"
b1010 v"
b1010 z"
b10 4
b10 -"
b10 k"
b10 6
b10 ,"
b10 f"
b1011 C
b1011 z
b1011 0"
b1011 J"
b1010 D
b1010 *"
b1010 H"
b1010 E
b1010 +"
b1010 F"
b0 @
b0 k
b0 N"
0P
0N
0L
0F
b1010 T
b1010 '"
b1010 ("
b1010 ["
b0 V
b0 w
b0 $"
b100 Z
b100 x
b100 }
b100 Y"
b100 e"
b100 j"
1Y
1X
b1010 <
b1010 ]"
b1010 u"
19
0!
#325
b11000 2
b11000 s"
b11000 w"
b110001100000011010110011 =
b110001100000011010110011 Q"
b110001100000011010110011 W"
b11000 ^
b11000 o
b11000 r"
b1010 b"
b110 _"
b100 \"
1^"
b1011 &"
b100 #"
b1000 |
0~
0!"
0%"
b10 :"
1D"
b100000000010011000000011 U"
b10000 S"
b10100 *
b10100 n
b10100 R"
b10100 X"
b10100 x"
b111 #
1!
#350
0p
b10000 q
1M
1O
b0 S
b0 u
b0 1"
1Q
b1100 _
b1100 i
b1100 y
b110 3
b110 f
b110 p"
b0 .
b0 9"
b0 ~"
b101 -
b101 8"
b101 }"
b1000 ,
b1000 7"
b1000 ##
b1100 4"
b1000 3"
b0 2"
b10 5"
b1000 /"
b0 ."
b1000 |"
b0 {"
b11 t
b0 `
b0 h
b0 m
b110 7
b110 g
b110 h"
b110 5
b110 {
b110 m"
b110 o"
b0 [
b0 v
b0 Z"
b1 4
b1 -"
b1 k"
b1 6
b1 ,"
b1 f"
b110 1
b110 g"
b110 l"
b110 v"
b110 z"
b100000000010011000000011 +
b100000000010011000000011 V"
b100000000010011000000011 "#
b100000 \
b100000 s
b100000 q"
b10000 >
b10000 r
b10000 T"
b10 R
b10 l
b10 ;"
1F
b1011 T
b1011 '"
b1011 ("
b1011 ["
b100 V
b100 w
b100 $"
b1000 Z
b1000 x
b1000 }
b1000 Y"
b1000 e"
b1000 j"
0Y
0X
0U
b1010 8
b1010 )"
b1010 c"
b1010 y"
b110 :
b110 `"
b110 t"
b100 <
b100 ]"
b100 u"
1;
0!
#375
b11100 2
b11100 s"
b11100 w"
b110000000010011100000011 =
b110000000010011100000011 Q"
b110000000010011100000011 W"
b11100 ^
b11100 o
b11100 r"
b1011 b"
b0 _"
b1000 \"
0^"
0a"
b110 #"
b1100 |
1%"
b1100 I"
b1000 G"
b0 E"
b10 M"
b1000 K"
b101 B"
1<"
b0 :"
1="
1>"
b110001100000011010110011 U"
b10100 S"
b11000 *
b11000 n
b11000 R"
b11000 X"
b11000 x"
b1000 #
1!
#400
0G
1c
0d
1e
0b
1p
10
0/
1)
b0 -
b0 8"
b0 }"
0M
0O
b0 S
b0 u
b0 1"
0Q
b1000 _
b1000 i
b1000 y
b1101 4"
b1100 3"
b1100 2"
b0 5"
b1100 /"
b1100 ."
b1100 |"
b1100 {"
b110011 t
b1000 3
b1000 f
b1000 p"
b111 `
b111 h
b111 m
b0 7
b0 g
b0 h"
b101 5
b101 {
b101 m"
b101 o"
b1000 1
b1000 g"
b1000 l"
b1000 v"
b1000 z"
b0 4
b0 -"
b0 k"
b0 6
b0 ,"
b0 f"
b110001100000011010110011 +
b110001100000011010110011 V"
b110001100000011010110011 "#
b100100 \
b100100 s
b100100 q"
b10100 >
b10100 r
b10100 T"
b1100 C
b1100 z
b1100 0"
b1100 J"
b1000 D
b1000 *"
b1000 H"
b0 E
b0 +"
b0 F"
b10 @
b10 k
b10 N"
b1000 A
b1000 L"
b1000 n"
b101 H
b101 C"
b101 i"
1P
b0 R
b0 l
b0 ;"
1N
1L
b110 V
b110 w
b110 $"
b1100 Z
b1100 x
b1100 }
b1100 Y"
b1100 e"
b1100 j"
1U
b1011 8
b1011 )"
b1011 c"
b1011 y"
b0 :
b0 `"
b0 t"
b1000 <
b1000 ]"
b1000 u"
0;
09
0!
#425
b1100 \"
1a"
b1100 &"
b101 #"
b1000 |
1~
1!"
b1101 I"
b1100 G"
b1100 E"
b0 M"
b0 B"
0<"
0="
0>"
0D"
b1001 #
b11 '
1!
#450
1G
b10 S
b10 u
b10 1"
0c
1d
0e
1b
b10000 _
b10000 i
b10000 y
00
1/
0)
b1000 7
b1000 g
b1000 h"
b1000 5
b1000 {
b1000 m"
b1000 o"
b1010 [
b1010 v
b1010 Z"
b1100 1
b1100 g"
b1100 l"
b1100 v"
b1100 z"
b10 4
b10 -"
b10 k"
b10 6
b10 ,"
b10 f"
b1101 C
b1101 z
b1101 0"
b1101 J"
b1100 D
b1100 *"
b1100 H"
b1100 E
b1100 +"
b1100 F"
b0 @
b0 k
b0 N"
b0 H
b0 C"
b0 i"
0P
0N
0L
0F
b1100 T
b1100 '"
b1100 ("
b1100 ["
b101 V
b101 w
b101 $"
b1000 Z
b1000 x
b1000 }
b1000 Y"
b1000 e"
b1000 j"
1Y
1X
b1100 <
b1100 ]"
b1100 u"
19
0!
#475
b100000 2
b100000 s"
b100000 w"
b111001110000011110110011 =
b111001110000011110110011 Q"
b111001110000011110110011 W"
b100000 ^
b100000 o
b100000 r"
b1100 b"
b1010 _"
b1000 \"
1^"
b1101 &"
b1000 #"
b10000 |
0~
0!"
0%"
b10 :"
1D"
b110000000010011100000011 U"
b11000 S"
b11100 *
b11100 n
b11100 R"
b11100 X"
b11100 x"
b1010 #
1!
#500
0p
b11000 q
1M
1O
b0 S
b0 u
b0 1"
1Q
b10100 _
b10100 i
b10100 y
b1010 3
b1010 f
b1010 p"
b0 .
b0 9"
b0 ~"
b1010 -
b1010 8"
b1010 }"
b1100 ,
b1100 7"
b1100 ##
b1110 4"
b0 2"
b10 5"
b0 ."
b0 {"
b11 t
b0 `
b0 h
b0 m
b1010 7
b1010 g
b1010 h"
b1010 5
b1010 {
b1010 m"
b1010 o"
b0 [
b0 v
b0 Z"
b1 4
b1 -"
b1 k"
b1 6
b1 ,"
b1 f"
b1010 1
b1010 g"
b1010 l"
b1010 v"
b1010 z"
b110000000010011100000011 +
b110000000010011100000011 V"
b110000000010011100000011 "#
b110000 \
b110000 s
b110000 q"
b11000 >
b11000 r
b11000 T"
b10 R
b10 l
b10 ;"
1F
b1101 T
b1101 '"
b1101 ("
b1101 ["
b1000 V
b1000 w
b1000 $"
b10000 Z
b10000 x
b10000 }
b10000 Y"
b10000 e"
b10000 j"
0Y
0X
0U
b1100 8
b1100 )"
b1100 c"
b1100 y"
b1010 :
b1010 `"
b1010 t"
b1000 <
b1000 ]"
b1000 u"
1;
0!
#525
b100100 2
b100100 s"
b100100 w"
b1110011000000100000110011 =
b1110011000000100000110011 Q"
b1110011000000100000110011 W"
b100100 ^
b100100 o
b100100 r"
b1101 b"
b0 _"
b10000 \"
0^"
0a"
b1010 #"
b10100 |
1%"
b1110 I"
b0 E"
b10 M"
b1100 K"
b1010 B"
1<"
b0 :"
1="
1>"
b111001110000011110110011 U"
b11100 S"
b100000 *
b100000 n
b100000 R"
b100000 X"
b100000 x"
b1011 #
1!
#550
0G
1c
0d
1e
0b
1p
10
0/
1)
0M
0O
b0 S
b0 u
b0 1"
0Q
b1100 _
b1100 i
b1100 y
b0 -
b0 8"
b0 }"
b1111 4"
b1110 3"
b1110 2"
b0 5"
b1110 /"
b1110 ."
b1110 |"
b1110 {"
b110011 t
b1100 3
b1100 f
b1100 p"
b111 `
b111 h
b111 m
b0 7
b0 g
b0 h"
b10000 1
b10000 g"
b10000 l"
b10000 v"
b10000 z"
b0 4
b0 -"
b0 k"
b0 6
b0 ,"
b0 f"
b111001110000011110110011 +
b111001110000011110110011 V"
b111001110000011110110011 "#
b110100 \
b110100 s
b110100 q"
b11100 >
b11100 r
b11100 T"
b1110 C
b1110 z
b1110 0"
b1110 J"
b0 E
b0 +"
b0 F"
b10 @
b10 k
b10 N"
b1100 A
b1100 L"
b1100 n"
b1010 H
b1010 C"
b1010 i"
1P
b0 R
b0 l
b0 ;"
1N
1L
b1010 V
b1010 w
b1010 $"
b10100 Z
b10100 x
b10100 }
b10100 Y"
b10100 e"
b10100 j"
1U
b1101 8
b1101 )"
b1101 c"
b1101 y"
b0 :
b0 `"
b0 t"
b10000 <
b10000 ]"
b10000 u"
0;
09
0!
#575
b10100 \"
1a"
b1110 &"
b1100 |
1~
1!"
b1111 I"
b1110 G"
b1110 E"
b0 M"
b0 B"
0<"
0="
0>"
0D"
b1100 #
b100 '
1!
#600
1G
b10 S
b10 u
b10 1"
0c
1d
0e
1b
b10010 [
b10010 v
b10010 Z"
b11000 _
b11000 i
b11000 y
00
1/
0)
b1100 7
b1100 g
b1100 h"
b1100 5
b1100 {
b1100 m"
b1100 o"
b10100 1
b10100 g"
b10100 l"
b10100 v"
b10100 z"
b10 4
b10 -"
b10 k"
b10 6
b10 ,"
b10 f"
b1111 C
b1111 z
b1111 0"
b1111 J"
b1110 D
b1110 *"
b1110 H"
b1110 E
b1110 +"
b1110 F"
b0 @
b0 k
b0 N"
b0 H
b0 C"
b0 i"
0P
0N
0L
0F
b1110 T
b1110 '"
b1110 ("
b1110 ["
b1100 Z
b1100 x
b1100 }
b1100 Y"
b1100 e"
b1100 j"
1Y
1X
b10100 <
b10100 ]"
b10100 u"
19
0!
#625
b101000 2
b101000 s"
b101000 w"
b1110111001000100010110011 =
b1110111001000100010110011 Q"
b1110111001000100010110011 W"
b101000 ^
b101000 o
b101000 r"
b1110 b"
b10010 _"
b1100 \"
1^"
b1111 &"
b1100 #"
b11000 |
0~
0!"
0%"
b10 :"
1D"
b1110011000000100000110011 U"
b100000 S"
b100100 *
b100100 n
b100100 R"
b100100 X"
b100100 x"
b1101 #
1!
